%!PS-Adobe-3.0 EPSF-3.0
%%Creator: (MATLAB, The Mathworks, Inc. Version 9.1.0.441655 \(R2016b\). Operating System: Linux)
%%Title: ./1particle_ukf_result.eps
%%CreationDate: 2017-06-03T11:47:23
%%Pages: (atend)
%%BoundingBox:    29    21   394   301
%%LanguageLevel: 2
%%EndComments
%%BeginProlog
%%BeginResource: procset (Apache XML Graphics Std ProcSet) 1.2 0
%%Version: 1.2 0
%%Copyright: (Copyright 2001-2003,2010 The Apache Software Foundation. License terms: http://www.apache.org/licenses/LICENSE-2.0)
/bd{bind def}bind def
/ld{load def}bd
/GR/grestore ld
/M/moveto ld
/LJ/setlinejoin ld
/C/curveto ld
/f/fill ld
/LW/setlinewidth ld
/GC/setgray ld
/t/show ld
/N/newpath ld
/CT/concat ld
/cp/closepath ld
/S/stroke ld
/L/lineto ld
/CC/setcmykcolor ld
/A/ashow ld
/GS/gsave ld
/RC/setrgbcolor ld
/RM/rmoveto ld
/ML/setmiterlimit ld
/re {4 2 roll M
1 index 0 rlineto
0 exch rlineto
neg 0 rlineto
cp } bd
/_ctm matrix def
/_tm matrix def
/BT { _ctm currentmatrix pop matrix _tm copy pop 0 0 moveto } bd
/ET { _ctm setmatrix } bd
/iTm { _ctm setmatrix _tm concat } bd
/Tm { _tm astore pop iTm 0 0 moveto } bd
/ux 0.0 def
/uy 0.0 def
/F {
  /Tp exch def
  /Tf exch def
  Tf findfont Tp scalefont setfont
  /cf Tf def  /cs Tp def
} bd
/ULS {currentpoint /uy exch def /ux exch def} bd
/ULE {
  /Tcx currentpoint pop def
  gsave
  newpath
  cf findfont cs scalefont dup
  /FontMatrix get 0 get /Ts exch def /FontInfo get dup
  /UnderlinePosition get Ts mul /To exch def
  /UnderlineThickness get Ts mul /Tt exch def
  ux uy To add moveto  Tcx uy To add lineto
  Tt setlinewidth stroke
  grestore
} bd
/OLE {
  /Tcx currentpoint pop def
  gsave
  newpath
  cf findfont cs scalefont dup
  /FontMatrix get 0 get /Ts exch def /FontInfo get dup
  /UnderlinePosition get Ts mul /To exch def
  /UnderlineThickness get Ts mul /Tt exch def
  ux uy To add cs add moveto Tcx uy To add cs add lineto
  Tt setlinewidth stroke
  grestore
} bd
/SOE {
  /Tcx currentpoint pop def
  gsave
  newpath
  cf findfont cs scalefont dup
  /FontMatrix get 0 get /Ts exch def /FontInfo get dup
  /UnderlinePosition get Ts mul /To exch def
  /UnderlineThickness get Ts mul /Tt exch def
  ux uy To add cs 10 mul 26 idiv add moveto Tcx uy To add cs 10 mul 26 idiv add lineto
  Tt setlinewidth stroke
  grestore
} bd
/QT {
/Y22 exch store
/X22 exch store
/Y21 exch store
/X21 exch store
currentpoint
/Y21 load 2 mul add 3 div exch
/X21 load 2 mul add 3 div exch
/X21 load 2 mul /X22 load add 3 div
/Y21 load 2 mul /Y22 load add 3 div
/X22 load /Y22 load curveto
} bd
/SSPD {
dup length /d exch dict def
{
/v exch def
/k exch def
currentpagedevice k known {
/cpdv currentpagedevice k get def
v cpdv ne {
/upd false def
/nullv v type /nulltype eq def
/nullcpdv cpdv type /nulltype eq def
nullv nullcpdv or
{
/upd true def
} {
/sametype v type cpdv type eq def
sametype {
v type /arraytype eq {
/vlen v length def
/cpdvlen cpdv length def
vlen cpdvlen eq {
0 1 vlen 1 sub {
/i exch def
/obj v i get def
/cpdobj cpdv i get def
obj cpdobj ne {
/upd true def
exit
} if
} for
} {
/upd true def
} ifelse
} {
v type /dicttype eq {
v {
/dv exch def
/dk exch def
/cpddv cpdv dk get def
dv cpddv ne {
/upd true def
exit
} if
} forall
} {
/upd true def
} ifelse
} ifelse
} if
} ifelse
upd true eq {
d k v put
} if
} if
} if
} forall
d length 0 gt {
d setpagedevice
} if
} bd
/RE { % /NewFontName [NewEncodingArray] /FontName RE -
  findfont dup length dict begin
  {
    1 index /FID ne
    {def} {pop pop} ifelse
  } forall
  /Encoding exch def
  /FontName 1 index def
  currentdict definefont pop
  end
} bind def
%%EndResource
%%BeginResource: procset (Apache XML Graphics EPS ProcSet) 1.0 0
%%Version: 1.0 0
%%Copyright: (Copyright 2002-2003 The Apache Software Foundation. License terms: http://www.apache.org/licenses/LICENSE-2.0)
/BeginEPSF { %def
/b4_Inc_state save def         % Save state for cleanup
/dict_count countdictstack def % Count objects on dict stack
/op_count count 1 sub def      % Count objects on operand stack
userdict begin                 % Push userdict on dict stack
/showpage { } def              % Redefine showpage, { } = null proc
0 setgray 0 setlinecap         % Prepare graphics state
1 setlinewidth 0 setlinejoin
10 setmiterlimit [ ] 0 setdash newpath
/languagelevel where           % If level not equal to 1 then
{pop languagelevel             % set strokeadjust and
1 ne                           % overprint to their defaults.
{false setstrokeadjust false setoverprint
} if
} if
} bd
/EndEPSF { %def
count op_count sub {pop} repeat            % Clean up stacks
countdictstack dict_count sub {end} repeat
b4_Inc_state restore
} bd
%%EndResource
%FOPBeginFontDict
%%IncludeResource: font Courier-Bold
%%IncludeResource: font Helvetica
%%IncludeResource: font Courier-BoldOblique
%%IncludeResource: font Courier-Oblique
%%IncludeResource: font Times-Roman
%%IncludeResource: font Helvetica-BoldOblique
%%IncludeResource: font Helvetica-Bold
%%IncludeResource: font Helvetica-Oblique
%%IncludeResource: font Times-BoldItalic
%%IncludeResource: font Courier
%%IncludeResource: font Times-Italic
%%IncludeResource: font Times-Bold
%%IncludeResource: font Symbol
%%IncludeResource: font ZapfDingbats
%FOPEndFontDict
%%BeginResource: encoding WinAnsiEncoding
/WinAnsiEncoding [
/.notdef /.notdef /.notdef /.notdef /.notdef
/.notdef /.notdef /.notdef /.notdef /.notdef
/.notdef /.notdef /.notdef /.notdef /.notdef
/.notdef /.notdef /.notdef /.notdef /.notdef
/.notdef /.notdef /.notdef /.notdef /.notdef
/.notdef /.notdef /.notdef /.notdef /.notdef
/.notdef /.notdef /space /exclam /quotedbl
/numbersign /dollar /percent /ampersand /quotesingle
/parenleft /parenright /asterisk /plus /comma
/hyphen /period /slash /zero /one
/two /three /four /five /six
/seven /eight /nine /colon /semicolon
/less /equal /greater /question /at
/A /B /C /D /E
/F /G /H /I /J
/K /L /M /N /O
/P /Q /R /S /T
/U /V /W /X /Y
/Z /bracketleft /backslash /bracketright /asciicircum
/underscore /quoteleft /a /b /c
/d /e /f /g /h
/i /j /k /l /m
/n /o /p /q /r
/s /t /u /v /w
/x /y /z /braceleft /bar
/braceright /asciitilde /bullet /Euro /bullet
/quotesinglbase /florin /quotedblbase /ellipsis /dagger
/daggerdbl /circumflex /perthousand /Scaron /guilsinglleft
/OE /bullet /Zcaron /bullet /bullet
/quoteleft /quoteright /quotedblleft /quotedblright /bullet
/endash /emdash /asciitilde /trademark /scaron
/guilsinglright /oe /bullet /zcaron /Ydieresis
/space /exclamdown /cent /sterling /currency
/yen /brokenbar /section /dieresis /copyright
/ordfeminine /guillemotleft /logicalnot /sfthyphen /registered
/macron /degree /plusminus /twosuperior /threesuperior
/acute /mu /paragraph /middot /cedilla
/onesuperior /ordmasculine /guillemotright /onequarter /onehalf
/threequarters /questiondown /Agrave /Aacute /Acircumflex
/Atilde /Adieresis /Aring /AE /Ccedilla
/Egrave /Eacute /Ecircumflex /Edieresis /Igrave
/Iacute /Icircumflex /Idieresis /Eth /Ntilde
/Ograve /Oacute /Ocircumflex /Otilde /Odieresis
/multiply /Oslash /Ugrave /Uacute /Ucircumflex
/Udieresis /Yacute /Thorn /germandbls /agrave
/aacute /acircumflex /atilde /adieresis /aring
/ae /ccedilla /egrave /eacute /ecircumflex
/edieresis /igrave /iacute /icircumflex /idieresis
/eth /ntilde /ograve /oacute /ocircumflex
/otilde /odieresis /divide /oslash /ugrave
/uacute /ucircumflex /udieresis /yacute /thorn
/ydieresis
] def
%%EndResource
%FOPBeginFontReencode
/Courier-Bold findfont
dup length dict begin
  {1 index /FID ne {def} {pop pop} ifelse} forall
  /Encoding WinAnsiEncoding def
  currentdict
end
/Courier-Bold exch definefont pop
/Helvetica findfont
dup length dict begin
  {1 index /FID ne {def} {pop pop} ifelse} forall
  /Encoding WinAnsiEncoding def
  currentdict
end
/Helvetica exch definefont pop
/Courier-BoldOblique findfont
dup length dict begin
  {1 index /FID ne {def} {pop pop} ifelse} forall
  /Encoding WinAnsiEncoding def
  currentdict
end
/Courier-BoldOblique exch definefont pop
/Courier-Oblique findfont
dup length dict begin
  {1 index /FID ne {def} {pop pop} ifelse} forall
  /Encoding WinAnsiEncoding def
  currentdict
end
/Courier-Oblique exch definefont pop
/Times-Roman findfont
dup length dict begin
  {1 index /FID ne {def} {pop pop} ifelse} forall
  /Encoding WinAnsiEncoding def
  currentdict
end
/Times-Roman exch definefont pop
/Helvetica-BoldOblique findfont
dup length dict begin
  {1 index /FID ne {def} {pop pop} ifelse} forall
  /Encoding WinAnsiEncoding def
  currentdict
end
/Helvetica-BoldOblique exch definefont pop
/Helvetica-Bold findfont
dup length dict begin
  {1 index /FID ne {def} {pop pop} ifelse} forall
  /Encoding WinAnsiEncoding def
  currentdict
end
/Helvetica-Bold exch definefont pop
/Helvetica-Oblique findfont
dup length dict begin
  {1 index /FID ne {def} {pop pop} ifelse} forall
  /Encoding WinAnsiEncoding def
  currentdict
end
/Helvetica-Oblique exch definefont pop
/Times-BoldItalic findfont
dup length dict begin
  {1 index /FID ne {def} {pop pop} ifelse} forall
  /Encoding WinAnsiEncoding def
  currentdict
end
/Times-BoldItalic exch definefont pop
/Courier findfont
dup length dict begin
  {1 index /FID ne {def} {pop pop} ifelse} forall
  /Encoding WinAnsiEncoding def
  currentdict
end
/Courier exch definefont pop
/Times-Italic findfont
dup length dict begin
  {1 index /FID ne {def} {pop pop} ifelse} forall
  /Encoding WinAnsiEncoding def
  currentdict
end
/Times-Italic exch definefont pop
/Times-Bold findfont
dup length dict begin
  {1 index /FID ne {def} {pop pop} ifelse} forall
  /Encoding WinAnsiEncoding def
  currentdict
end
/Times-Bold exch definefont pop
%FOPEndFontReencode
%%EndProlog
%%Page: 1 1
%%PageBoundingBox: 0 0 427 321
%%BeginPageSetup
[1 0 0 -1 0 321] CT
%%EndPageSetup
GS
[0.75789 0 0 0.75789 0 0.41052] CT
1 GC
N
0 0 564 423 re
f
GR
GS
[0.75789 0 0 0.75789 0 0.41052] CT
1 GC
N
0 0 564 423 re
f
GR
GS
[0.75789 0 0 0.75789 0 0.41052] CT
1 GC
N
73 376 M
510 376 L
510 32 L
73 32 L
cp
f
GR
GS
[0.75789 0 0 0.75789 0 0.41052] CT
0.149 GC
2 setlinecap
1 LJ
0.66 LW
N
73 376 M
510 376 L
S
GR
GS
[0.75789 0 0 0.75789 0 0.41052] CT
0.149 GC
2 setlinecap
1 LJ
0.66 LW
N
73 32 M
510 32 L
S
GR
GS
[0.75789 0 0 0.75789 0 0.41052] CT
0.149 GC
2 setlinecap
1 LJ
0.66 LW
N
73 376 M
73 371.63 L
S
GR
GS
[0.75789 0 0 0.75789 0 0.41052] CT
0.149 GC
2 setlinecap
1 LJ
0.66 LW
N
160.4 376 M
160.4 371.63 L
S
GR
GS
[0.75789 0 0 0.75789 0 0.41052] CT
0.149 GC
2 setlinecap
1 LJ
0.66 LW
N
247.8 376 M
247.8 371.63 L
S
GR
GS
[0.75789 0 0 0.75789 0 0.41052] CT
0.149 GC
2 setlinecap
1 LJ
0.66 LW
N
335.2 376 M
335.2 371.63 L
S
GR
GS
[0.75789 0 0 0.75789 0 0.41052] CT
0.149 GC
2 setlinecap
1 LJ
0.66 LW
N
422.6 376 M
422.6 371.63 L
S
GR
GS
[0.75789 0 0 0.75789 0 0.41052] CT
0.149 GC
2 setlinecap
1 LJ
0.66 LW
N
510 376 M
510 371.63 L
S
GR
GS
[0.75789 0 0 0.75789 0 0.41052] CT
0.149 GC
2 setlinecap
1 LJ
0.66 LW
N
73 32 M
73 36.37 L
S
GR
GS
[0.75789 0 0 0.75789 0 0.41052] CT
0.149 GC
2 setlinecap
1 LJ
0.66 LW
N
160.4 32 M
160.4 36.37 L
S
GR
GS
[0.75789 0 0 0.75789 0 0.41052] CT
0.149 GC
2 setlinecap
1 LJ
0.66 LW
N
247.8 32 M
247.8 36.37 L
S
GR
GS
[0.75789 0 0 0.75789 0 0.41052] CT
0.149 GC
2 setlinecap
1 LJ
0.66 LW
N
335.2 32 M
335.2 36.37 L
S
GR
GS
[0.75789 0 0 0.75789 0 0.41052] CT
0.149 GC
2 setlinecap
1 LJ
0.66 LW
N
422.6 32 M
422.6 36.37 L
S
GR
GS
[0.75789 0 0 0.75789 0 0.41052] CT
0.149 GC
2 setlinecap
1 LJ
0.66 LW
N
510 32 M
510 36.37 L
S
GR
GS
[0.75789 0 0 0.75789 55.32632 289.37894] CT
0.149 GC
/Helvetica 13.194 F
GS
[1 0 0 1 0 0] CT
-4.5 13 moveto 
1 -1 scale
(0) t 
GR
GR
GS
[0.75789 0 0 0.75789 121.56631 289.37894] CT
0.149 GC
/Helvetica 13.194 F
GS
[1 0 0 1 0 0] CT
-10.5 13 moveto 
1 -1 scale
(0.5) t 
GR
GR
GS
[0.75789 0 0 0.75789 187.80632 289.37894] CT
0.149 GC
/Helvetica 13.194 F
GS
[1 0 0 1 0 0] CT
-4.5 13 moveto 
1 -1 scale
(1) t 
GR
GR
GS
[0.75789 0 0 0.75789 254.04633 289.37894] CT
0.149 GC
/Helvetica 13.194 F
GS
[1 0 0 1 0 0] CT
-10.5 13 moveto 
1 -1 scale
(1.5) t 
GR
GR
GS
[0.75789 0 0 0.75789 320.28632 289.37894] CT
0.149 GC
/Helvetica 13.194 F
GS
[1 0 0 1 0 0] CT
-4.5 13 moveto 
1 -1 scale
(2) t 
GR
GR
GS
[0.75789 0 0 0.75789 386.52632 289.37894] CT
0.149 GC
/Helvetica 13.194 F
GS
[1 0 0 1 0 0] CT
-10.5 13 moveto 
1 -1 scale
(2.5) t 
GR
GR
GS
[0.75789 0 0 0.75789 0 0.41052] CT
0.149 GC
2 setlinecap
1 LJ
0.66 LW
N
73 376 M
73 32 L
S
GR
GS
[0.75789 0 0 0.75789 0 0.41052] CT
0.149 GC
2 setlinecap
1 LJ
0.66 LW
N
510 376 M
510 32 L
S
GR
GS
[0.75789 0 0 0.75789 0 0.41052] CT
0.149 GC
2 setlinecap
1 LJ
0.66 LW
N
73 376 M
77.37 376 L
S
GR
GS
[0.75789 0 0 0.75789 0 0.41052] CT
0.149 GC
2 setlinecap
1 LJ
0.66 LW
N
73 326.857 M
77.37 326.857 L
S
GR
GS
[0.75789 0 0 0.75789 0 0.41052] CT
0.149 GC
2 setlinecap
1 LJ
0.66 LW
N
73 277.714 M
77.37 277.714 L
S
GR
GS
[0.75789 0 0 0.75789 0 0.41052] CT
0.149 GC
2 setlinecap
1 LJ
0.66 LW
N
73 228.571 M
77.37 228.571 L
S
GR
GS
[0.75789 0 0 0.75789 0 0.41052] CT
0.149 GC
2 setlinecap
1 LJ
0.66 LW
N
73 179.429 M
77.37 179.429 L
S
GR
GS
[0.75789 0 0 0.75789 0 0.41052] CT
0.149 GC
2 setlinecap
1 LJ
0.66 LW
N
73 130.286 M
77.37 130.286 L
S
GR
GS
[0.75789 0 0 0.75789 0 0.41052] CT
0.149 GC
2 setlinecap
1 LJ
0.66 LW
N
73 81.143 M
77.37 81.143 L
S
GR
GS
[0.75789 0 0 0.75789 0 0.41052] CT
0.149 GC
2 setlinecap
1 LJ
0.66 LW
N
73 32 M
77.37 32 L
S
GR
GS
[0.75789 0 0 0.75789 0 0.41052] CT
0.149 GC
2 setlinecap
1 LJ
0.66 LW
N
510 376 M
505.63 376 L
S
GR
GS
[0.75789 0 0 0.75789 0 0.41052] CT
0.149 GC
2 setlinecap
1 LJ
0.66 LW
N
510 326.857 M
505.63 326.857 L
S
GR
GS
[0.75789 0 0 0.75789 0 0.41052] CT
0.149 GC
2 setlinecap
1 LJ
0.66 LW
N
510 277.714 M
505.63 277.714 L
S
GR
GS
[0.75789 0 0 0.75789 0 0.41052] CT
0.149 GC
2 setlinecap
1 LJ
0.66 LW
N
510 228.571 M
505.63 228.571 L
S
GR
GS
[0.75789 0 0 0.75789 0 0.41052] CT
0.149 GC
2 setlinecap
1 LJ
0.66 LW
N
510 179.429 M
505.63 179.429 L
S
GR
GS
[0.75789 0 0 0.75789 0 0.41052] CT
0.149 GC
2 setlinecap
1 LJ
0.66 LW
N
510 130.286 M
505.63 130.286 L
S
GR
GS
[0.75789 0 0 0.75789 0 0.41052] CT
0.149 GC
2 setlinecap
1 LJ
0.66 LW
N
510 81.143 M
505.63 81.143 L
S
GR
GS
[0.75789 0 0 0.75789 0 0.41052] CT
0.149 GC
2 setlinecap
1 LJ
0.66 LW
N
510 32 M
505.63 32 L
S
GR
GS
[0.75789 0 0 0.75789 51.32632 285.37895] CT
0.149 GC
/Helvetica 13.194 F
GS
[1 0 0 1 0 0] CT
-9 4.5 moveto 
1 -1 scale
(0) t 
GR
GR
GS
[0.75789 0 0 0.75789 51.32632 248.13384] CT
0.149 GC
/Helvetica 13.194 F
GS
[1 0 0 1 0 0] CT
-29 4.5 moveto 
1 -1 scale
(0.05) t 
GR
GR
GS
[0.75789 0 0 0.75789 51.32632 210.88873] CT
0.149 GC
/Helvetica 13.194 F
GS
[1 0 0 1 0 0] CT
-21 4.5 moveto 
1 -1 scale
(0.1) t 
GR
GR
GS
[0.75789 0 0 0.75789 51.32632 173.64361] CT
0.149 GC
/Helvetica 13.194 F
GS
[1 0 0 1 0 0] CT
-29 4.5 moveto 
1 -1 scale
(0.15) t 
GR
GR
GS
[0.75789 0 0 0.75789 51.32632 136.3985] CT
0.149 GC
/Helvetica 13.194 F
GS
[1 0 0 1 0 0] CT
-21 4.5 moveto 
1 -1 scale
(0.2) t 
GR
GR
GS
[0.75789 0 0 0.75789 51.32632 99.15339] CT
0.149 GC
/Helvetica 13.194 F
GS
[1 0 0 1 0 0] CT
-29 4.5 moveto 
1 -1 scale
(0.25) t 
GR
GR
GS
[0.75789 0 0 0.75789 51.32632 61.90826] CT
0.149 GC
/Helvetica 13.194 F
GS
[1 0 0 1 0 0] CT
-21 4.5 moveto 
1 -1 scale
(0.3) t 
GR
GR
GS
[0.75789 0 0 0.75789 51.32632 24.66316] CT
0.149 GC
/Helvetica 13.194 F
GS
[1 0 0 1 0 0] CT
-29 4.5 moveto 
1 -1 scale
(0.35) t 
GR
GR
GS
[0.75789 0 0 0.75789 0 0.41052] CT
0 0 1 RC
1 LJ
2.639 LW
N
73 376 M
75.122 370.207 L
80.316 370.823 L
83.821 365.477 L
87.375 355.758 L
91.776 351.084 L
96.895 351.497 L
102.102 349.768 L
106.265 346.109 L
107.254 325.06 L
109.465 327.788 L
113.517 330.426 L
117.671 316.077 L
117.383 296.067 L
119.059 298.515 L
123.582 302.285 L
124.667 303.492 L
130.773 293.359 L
133.483 279.828 L
136.447 282.925 L
139.515 272.539 L
142.556 272.799 L
146.965 276.137 L
151.249 267.182 L
154.407 253.627 L
160.39 243.431 L
163.076 245.035 L
167.094 231.484 L
171.14 239.634 L
175.207 224.964 L
177.686 222.443 L
179.963 195.639 L
180.429 189.822 L
184.525 182.892 L
185.667 185.475 L
188.682 167.482 L
192.529 170.38 L
198.579 168.447 L
202.292 161.722 L
203.579 160.514 L
206.309 165.209 L
209.461 162.544 L
211.807 166.232 L
216.504 158.171 L
217.604 159.174 L
222.066 166.413 L
226.28 160.711 L
229.427 150.842 L
233.78 135.204 L
237.195 151.414 L
241.082 158.608 L
244.766 152.395 L
250.394 154.86 L
254.143 154.895 L
256.648 152.032 L
262.859 146.092 L
264.759 148.177 L
267.325 141.271 L
270.79 150.959 L
274.156 144.309 L
276.878 154.854 L
280.509 162.061 L
286.515 146.733 L
289.133 150.192 L
291.483 160.468 L
294.264 149.647 L
298.336 163.168 L
301.511 171.827 L
305.175 165.369 L
309.763 167.249 L
313.249 164.542 L
315.252 149.703 L
320.66 154.184 L
324.646 135.528 L
329.495 145.004 L
332.438 156.125 L
338.042 157.124 L
340.638 166.336 L
342.042 154.62 L
343.896 164.696 L
349.637 147.946 L
351.939 138.882 L
355.138 122.781 L
359.502 124.095 L
364.33 116.779 L
368.811 120.036 L
373.102 115.412 L
375.226 113.405 L
379.631 114.503 L
384.574 129.592 L
391.507 117.664 L
394.197 107.357 L
397.207 110.037 L
401.187 111.516 L
403.288 117.4 L
409.646 107.601 L
415.893 99.673 L
419.613 93.126 L
424.574 97.587 L
429.623 101.136 L
432.146 96.648 L
434.983 77.495 L
439.69 87.549 L
443.116 88.857 L
448.642 99.898 L
451.087 89.786 L
457.254 86.146 L
460.768 76.788 L
464.772 60.894 L
466.548 63.37 L
S
GR
GS
[0.75789 0 0 0.75789 0 0.41052] CT
[8 8] 0 setdash
2 LJ
2.639 LW
N
73 376 M
77.436 356.01 L
80.51 350.908 L
84.352 333.338 L
85.998 335.98 L
92.388 330.993 L
96.784 326.46 L
100.133 308.732 L
102.49 295.053 L
102.259 281.833 L
105.604 294.313 L
111.152 291.103 L
111.114 298.794 L
115.66 295.925 L
117.019 290.851 L
120.787 301.048 L
124.71 291.141 L
128.497 285.481 L
131.557 278.569 L
134.485 257.497 L
139.382 245.184 L
142.162 250.215 L
146.193 259.777 L
149.868 246.06 L
151.7 235.706 L
159.771 228.331 L
164.73 201.423 L
168.715 198.96 L
170.808 209.44 L
175.094 191.28 L
175.735 185.238 L
177.851 169.295 L
180.868 164.665 L
183.959 156.678 L
184.387 157.248 L
189.325 163.297 L
194.649 170.684 L
197.461 183.317 L
199.848 175.168 L
201.022 176.352 L
205.478 195.766 L
210.798 185.921 L
211.582 175.439 L
215.241 164.287 L
219.37 164.913 L
222.805 167.906 L
227.714 160.255 L
229.167 170.328 L
232.905 172.087 L
238.266 190.761 L
242.586 185.967 L
250.231 188.664 L
252.587 185.165 L
253.968 193.762 L
257.889 189.438 L
262.475 186.235 L
265.713 181.799 L
268.86 183.503 L
273.631 172.691 L
274.8 172.018 L
277.698 175.936 L
280.527 187.455 L
284.109 174.902 L
289.822 162.225 L
291.839 178.128 L
298.294 171.495 L
299.929 185.695 L
300.543 185.525 L
304.455 185.615 L
309.914 183.982 L
316.413 173.965 L
321.077 172.645 L
325.062 162.639 L
326.253 165.34 L
330.695 169.818 L
333.718 163.537 L
338.825 159.974 L
338.942 149.968 L
342.867 144.681 L
347.995 135.613 L
351.494 141.677 L
354.371 145.407 L
360.977 145.802 L
362.6 141.424 L
367.493 149.991 L
373.828 149.5 L
377.271 145.538 L
378.976 138.616 L
382.43 144.526 L
390.24 131.302 L
392.648 128.16 L
394.846 125.495 L
398.115 133.499 L
402.59 134.579 L
406.041 139.08 L
412.719 133.755 L
418.379 143.571 L
422.302 127.871 L
427.21 141.672 L
428.594 140.359 L
432.873 135.303 L
434.816 112.305 L
441.357 130.021 L
444.785 118.251 L
446.537 104.559 L
447.998 86.532 L
450.06 94.075 L
457.438 108.377 L
461.981 108.451 L
463.96 111.531 L
S
GR
GS
[0.75789 0 0 0.75789 0 0.41052] CT
1 GC
N
344 80 M
344 45 L
497 45 L
497 80 L
cp
f
GR
GS
[0.75789 0 0 0.75789 288.7579 41.82013] CT
/Helvetica 11.875 F
GS
[1 0 0 1 0 0] CT
0 4.5 moveto 
1 -1 scale
(estimated position) t 
GR
GR
GS
[0.75789 0 0 0.75789 0 0.41052] CT
0 0 1 RC
1 LJ
2.639 LW
N
348 54.638 M
378 54.638 L
S
GR
GS
[0.75789 0 0 0.75789 288.7579 53.73776] CT
/Helvetica 11.875 F
GS
[1 0 0 1 0 0] CT
0 4.5 moveto 
1 -1 scale
(real position) t 
GR
GR
GS
[0.75789 0 0 0.75789 0 0.41052] CT
[8 8] 0 setdash
2 LJ
2.639 LW
N
348 70.362 M
378 70.362 L
S
GR
GS
[0.75789 0 0 0.75789 0 0.41052] CT
0.149 GC
10.0 ML
0.66 LW
N
344 80 M
344 45 L
497 45 L
497 80 L
cp
S
GR
%%Trailer
%%Pages: 1
%%EOF
