%!PS-Adobe-3.0 EPSF-3.0
%%Creator: (MATLAB, The Mathworks, Inc. Version 9.1.0.441655 \(R2016b\). Operating System: Linux)
%%Title: ./ukf_zero_observation_noise.eps
%%CreationDate: 2017-06-03T22:29:59
%%Pages: (atend)
%%BoundingBox:    26    21   394   301
%%LanguageLevel: 2
%%EndComments
%%BeginProlog
%%BeginResource: procset (Apache XML Graphics Std ProcSet) 1.2 0
%%Version: 1.2 0
%%Copyright: (Copyright 2001-2003,2010 The Apache Software Foundation. License terms: http://www.apache.org/licenses/LICENSE-2.0)
/bd{bind def}bind def
/ld{load def}bd
/GR/grestore ld
/M/moveto ld
/LJ/setlinejoin ld
/C/curveto ld
/f/fill ld
/LW/setlinewidth ld
/GC/setgray ld
/t/show ld
/N/newpath ld
/CT/concat ld
/cp/closepath ld
/S/stroke ld
/L/lineto ld
/CC/setcmykcolor ld
/A/ashow ld
/GS/gsave ld
/RC/setrgbcolor ld
/RM/rmoveto ld
/ML/setmiterlimit ld
/re {4 2 roll M
1 index 0 rlineto
0 exch rlineto
neg 0 rlineto
cp } bd
/_ctm matrix def
/_tm matrix def
/BT { _ctm currentmatrix pop matrix _tm copy pop 0 0 moveto } bd
/ET { _ctm setmatrix } bd
/iTm { _ctm setmatrix _tm concat } bd
/Tm { _tm astore pop iTm 0 0 moveto } bd
/ux 0.0 def
/uy 0.0 def
/F {
  /Tp exch def
  /Tf exch def
  Tf findfont Tp scalefont setfont
  /cf Tf def  /cs Tp def
} bd
/ULS {currentpoint /uy exch def /ux exch def} bd
/ULE {
  /Tcx currentpoint pop def
  gsave
  newpath
  cf findfont cs scalefont dup
  /FontMatrix get 0 get /Ts exch def /FontInfo get dup
  /UnderlinePosition get Ts mul /To exch def
  /UnderlineThickness get Ts mul /Tt exch def
  ux uy To add moveto  Tcx uy To add lineto
  Tt setlinewidth stroke
  grestore
} bd
/OLE {
  /Tcx currentpoint pop def
  gsave
  newpath
  cf findfont cs scalefont dup
  /FontMatrix get 0 get /Ts exch def /FontInfo get dup
  /UnderlinePosition get Ts mul /To exch def
  /UnderlineThickness get Ts mul /Tt exch def
  ux uy To add cs add moveto Tcx uy To add cs add lineto
  Tt setlinewidth stroke
  grestore
} bd
/SOE {
  /Tcx currentpoint pop def
  gsave
  newpath
  cf findfont cs scalefont dup
  /FontMatrix get 0 get /Ts exch def /FontInfo get dup
  /UnderlinePosition get Ts mul /To exch def
  /UnderlineThickness get Ts mul /Tt exch def
  ux uy To add cs 10 mul 26 idiv add moveto Tcx uy To add cs 10 mul 26 idiv add lineto
  Tt setlinewidth stroke
  grestore
} bd
/QT {
/Y22 exch store
/X22 exch store
/Y21 exch store
/X21 exch store
currentpoint
/Y21 load 2 mul add 3 div exch
/X21 load 2 mul add 3 div exch
/X21 load 2 mul /X22 load add 3 div
/Y21 load 2 mul /Y22 load add 3 div
/X22 load /Y22 load curveto
} bd
/SSPD {
dup length /d exch dict def
{
/v exch def
/k exch def
currentpagedevice k known {
/cpdv currentpagedevice k get def
v cpdv ne {
/upd false def
/nullv v type /nulltype eq def
/nullcpdv cpdv type /nulltype eq def
nullv nullcpdv or
{
/upd true def
} {
/sametype v type cpdv type eq def
sametype {
v type /arraytype eq {
/vlen v length def
/cpdvlen cpdv length def
vlen cpdvlen eq {
0 1 vlen 1 sub {
/i exch def
/obj v i get def
/cpdobj cpdv i get def
obj cpdobj ne {
/upd true def
exit
} if
} for
} {
/upd true def
} ifelse
} {
v type /dicttype eq {
v {
/dv exch def
/dk exch def
/cpddv cpdv dk get def
dv cpddv ne {
/upd true def
exit
} if
} forall
} {
/upd true def
} ifelse
} ifelse
} if
} ifelse
upd true eq {
d k v put
} if
} if
} if
} forall
d length 0 gt {
d setpagedevice
} if
} bd
/RE { % /NewFontName [NewEncodingArray] /FontName RE -
  findfont dup length dict begin
  {
    1 index /FID ne
    {def} {pop pop} ifelse
  } forall
  /Encoding exch def
  /FontName 1 index def
  currentdict definefont pop
  end
} bind def
%%EndResource
%%BeginResource: procset (Apache XML Graphics EPS ProcSet) 1.0 0
%%Version: 1.0 0
%%Copyright: (Copyright 2002-2003 The Apache Software Foundation. License terms: http://www.apache.org/licenses/LICENSE-2.0)
/BeginEPSF { %def
/b4_Inc_state save def         % Save state for cleanup
/dict_count countdictstack def % Count objects on dict stack
/op_count count 1 sub def      % Count objects on operand stack
userdict begin                 % Push userdict on dict stack
/showpage { } def              % Redefine showpage, { } = null proc
0 setgray 0 setlinecap         % Prepare graphics state
1 setlinewidth 0 setlinejoin
10 setmiterlimit [ ] 0 setdash newpath
/languagelevel where           % If level not equal to 1 then
{pop languagelevel             % set strokeadjust and
1 ne                           % overprint to their defaults.
{false setstrokeadjust false setoverprint
} if
} if
} bd
/EndEPSF { %def
count op_count sub {pop} repeat            % Clean up stacks
countdictstack dict_count sub {end} repeat
b4_Inc_state restore
} bd
%%EndResource
%FOPBeginFontDict
%%IncludeResource: font Courier-Bold
%%IncludeResource: font Helvetica
%%IncludeResource: font Courier-BoldOblique
%%IncludeResource: font Courier-Oblique
%%IncludeResource: font Times-Roman
%%IncludeResource: font Helvetica-BoldOblique
%%IncludeResource: font Helvetica-Bold
%%IncludeResource: font Helvetica-Oblique
%%IncludeResource: font Times-BoldItalic
%%IncludeResource: font Courier
%%IncludeResource: font Times-Italic
%%IncludeResource: font Times-Bold
%%IncludeResource: font Symbol
%%IncludeResource: font ZapfDingbats
%FOPEndFontDict
%%BeginResource: encoding WinAnsiEncoding
/WinAnsiEncoding [
/.notdef /.notdef /.notdef /.notdef /.notdef
/.notdef /.notdef /.notdef /.notdef /.notdef
/.notdef /.notdef /.notdef /.notdef /.notdef
/.notdef /.notdef /.notdef /.notdef /.notdef
/.notdef /.notdef /.notdef /.notdef /.notdef
/.notdef /.notdef /.notdef /.notdef /.notdef
/.notdef /.notdef /space /exclam /quotedbl
/numbersign /dollar /percent /ampersand /quotesingle
/parenleft /parenright /asterisk /plus /comma
/hyphen /period /slash /zero /one
/two /three /four /five /six
/seven /eight /nine /colon /semicolon
/less /equal /greater /question /at
/A /B /C /D /E
/F /G /H /I /J
/K /L /M /N /O
/P /Q /R /S /T
/U /V /W /X /Y
/Z /bracketleft /backslash /bracketright /asciicircum
/underscore /quoteleft /a /b /c
/d /e /f /g /h
/i /j /k /l /m
/n /o /p /q /r
/s /t /u /v /w
/x /y /z /braceleft /bar
/braceright /asciitilde /bullet /Euro /bullet
/quotesinglbase /florin /quotedblbase /ellipsis /dagger
/daggerdbl /circumflex /perthousand /Scaron /guilsinglleft
/OE /bullet /Zcaron /bullet /bullet
/quoteleft /quoteright /quotedblleft /quotedblright /bullet
/endash /emdash /asciitilde /trademark /scaron
/guilsinglright /oe /bullet /zcaron /Ydieresis
/space /exclamdown /cent /sterling /currency
/yen /brokenbar /section /dieresis /copyright
/ordfeminine /guillemotleft /logicalnot /sfthyphen /registered
/macron /degree /plusminus /twosuperior /threesuperior
/acute /mu /paragraph /middot /cedilla
/onesuperior /ordmasculine /guillemotright /onequarter /onehalf
/threequarters /questiondown /Agrave /Aacute /Acircumflex
/Atilde /Adieresis /Aring /AE /Ccedilla
/Egrave /Eacute /Ecircumflex /Edieresis /Igrave
/Iacute /Icircumflex /Idieresis /Eth /Ntilde
/Ograve /Oacute /Ocircumflex /Otilde /Odieresis
/multiply /Oslash /Ugrave /Uacute /Ucircumflex
/Udieresis /Yacute /Thorn /germandbls /agrave
/aacute /acircumflex /atilde /adieresis /aring
/ae /ccedilla /egrave /eacute /ecircumflex
/edieresis /igrave /iacute /icircumflex /idieresis
/eth /ntilde /ograve /oacute /ocircumflex
/otilde /odieresis /divide /oslash /ugrave
/uacute /ucircumflex /udieresis /yacute /thorn
/ydieresis
] def
%%EndResource
%FOPBeginFontReencode
/Courier-Bold findfont
dup length dict begin
  {1 index /FID ne {def} {pop pop} ifelse} forall
  /Encoding WinAnsiEncoding def
  currentdict
end
/Courier-Bold exch definefont pop
/Helvetica findfont
dup length dict begin
  {1 index /FID ne {def} {pop pop} ifelse} forall
  /Encoding WinAnsiEncoding def
  currentdict
end
/Helvetica exch definefont pop
/Courier-BoldOblique findfont
dup length dict begin
  {1 index /FID ne {def} {pop pop} ifelse} forall
  /Encoding WinAnsiEncoding def
  currentdict
end
/Courier-BoldOblique exch definefont pop
/Courier-Oblique findfont
dup length dict begin
  {1 index /FID ne {def} {pop pop} ifelse} forall
  /Encoding WinAnsiEncoding def
  currentdict
end
/Courier-Oblique exch definefont pop
/Times-Roman findfont
dup length dict begin
  {1 index /FID ne {def} {pop pop} ifelse} forall
  /Encoding WinAnsiEncoding def
  currentdict
end
/Times-Roman exch definefont pop
/Helvetica-BoldOblique findfont
dup length dict begin
  {1 index /FID ne {def} {pop pop} ifelse} forall
  /Encoding WinAnsiEncoding def
  currentdict
end
/Helvetica-BoldOblique exch definefont pop
/Helvetica-Bold findfont
dup length dict begin
  {1 index /FID ne {def} {pop pop} ifelse} forall
  /Encoding WinAnsiEncoding def
  currentdict
end
/Helvetica-Bold exch definefont pop
/Helvetica-Oblique findfont
dup length dict begin
  {1 index /FID ne {def} {pop pop} ifelse} forall
  /Encoding WinAnsiEncoding def
  currentdict
end
/Helvetica-Oblique exch definefont pop
/Times-BoldItalic findfont
dup length dict begin
  {1 index /FID ne {def} {pop pop} ifelse} forall
  /Encoding WinAnsiEncoding def
  currentdict
end
/Times-BoldItalic exch definefont pop
/Courier findfont
dup length dict begin
  {1 index /FID ne {def} {pop pop} ifelse} forall
  /Encoding WinAnsiEncoding def
  currentdict
end
/Courier exch definefont pop
/Times-Italic findfont
dup length dict begin
  {1 index /FID ne {def} {pop pop} ifelse} forall
  /Encoding WinAnsiEncoding def
  currentdict
end
/Times-Italic exch definefont pop
/Times-Bold findfont
dup length dict begin
  {1 index /FID ne {def} {pop pop} ifelse} forall
  /Encoding WinAnsiEncoding def
  currentdict
end
/Times-Bold exch definefont pop
%FOPEndFontReencode
%%EndProlog
%%Page: 1 1
%%PageBoundingBox: 0 0 427 321
%%BeginPageSetup
[1 0 0 -1 0 321] CT
%%EndPageSetup
GS
[0.75789 0 0 0.75789 0 0.41052] CT
1 GC
N
0 0 564 423 re
f
GR
GS
[0.75789 0 0 0.75789 0 0.41052] CT
1 GC
N
0 0 564 423 re
f
GR
GS
[0.75789 0 0 0.75789 0 0.41052] CT
1 GC
N
73 376 M
510 376 L
510 32 L
73 32 L
cp
f
GR
GS
[0.75789 0 0 0.75789 0 0.41052] CT
0.149 GC
2 setlinecap
1 LJ
0.66 LW
N
73 376 M
510 376 L
S
GR
GS
[0.75789 0 0 0.75789 0 0.41052] CT
0.149 GC
2 setlinecap
1 LJ
0.66 LW
N
73 32 M
510 32 L
S
GR
GS
[0.75789 0 0 0.75789 0 0.41052] CT
0.149 GC
2 setlinecap
1 LJ
0.66 LW
N
73 376 M
73 371.63 L
S
GR
GS
[0.75789 0 0 0.75789 0 0.41052] CT
0.149 GC
2 setlinecap
1 LJ
0.66 LW
N
145.833 376 M
145.833 371.63 L
S
GR
GS
[0.75789 0 0 0.75789 0 0.41052] CT
0.149 GC
2 setlinecap
1 LJ
0.66 LW
N
218.667 376 M
218.667 371.63 L
S
GR
GS
[0.75789 0 0 0.75789 0 0.41052] CT
0.149 GC
2 setlinecap
1 LJ
0.66 LW
N
291.5 376 M
291.5 371.63 L
S
GR
GS
[0.75789 0 0 0.75789 0 0.41052] CT
0.149 GC
2 setlinecap
1 LJ
0.66 LW
N
364.333 376 M
364.333 371.63 L
S
GR
GS
[0.75789 0 0 0.75789 0 0.41052] CT
0.149 GC
2 setlinecap
1 LJ
0.66 LW
N
437.167 376 M
437.167 371.63 L
S
GR
GS
[0.75789 0 0 0.75789 0 0.41052] CT
0.149 GC
2 setlinecap
1 LJ
0.66 LW
N
510 376 M
510 371.63 L
S
GR
GS
[0.75789 0 0 0.75789 0 0.41052] CT
0.149 GC
2 setlinecap
1 LJ
0.66 LW
N
73 32 M
73 36.37 L
S
GR
GS
[0.75789 0 0 0.75789 0 0.41052] CT
0.149 GC
2 setlinecap
1 LJ
0.66 LW
N
145.833 32 M
145.833 36.37 L
S
GR
GS
[0.75789 0 0 0.75789 0 0.41052] CT
0.149 GC
2 setlinecap
1 LJ
0.66 LW
N
218.667 32 M
218.667 36.37 L
S
GR
GS
[0.75789 0 0 0.75789 0 0.41052] CT
0.149 GC
2 setlinecap
1 LJ
0.66 LW
N
291.5 32 M
291.5 36.37 L
S
GR
GS
[0.75789 0 0 0.75789 0 0.41052] CT
0.149 GC
2 setlinecap
1 LJ
0.66 LW
N
364.333 32 M
364.333 36.37 L
S
GR
GS
[0.75789 0 0 0.75789 0 0.41052] CT
0.149 GC
2 setlinecap
1 LJ
0.66 LW
N
437.167 32 M
437.167 36.37 L
S
GR
GS
[0.75789 0 0 0.75789 0 0.41052] CT
0.149 GC
2 setlinecap
1 LJ
0.66 LW
N
510 32 M
510 36.37 L
S
GR
GS
[0.75789 0 0 0.75789 55.32632 289.37894] CT
0.149 GC
/Helvetica 13.194 F
GS
[1 0 0 1 0 0] CT
-13 13 moveto 
1 -1 scale
(-0.5) t 
GR
GR
GS
[0.75789 0 0 0.75789 110.52631 289.37894] CT
0.149 GC
/Helvetica 13.194 F
GS
[1 0 0 1 0 0] CT
-4.5 13 moveto 
1 -1 scale
(0) t 
GR
GR
GS
[0.75789 0 0 0.75789 165.72632 289.37894] CT
0.149 GC
/Helvetica 13.194 F
GS
[1 0 0 1 0 0] CT
-10.5 13 moveto 
1 -1 scale
(0.5) t 
GR
GR
GS
[0.75789 0 0 0.75789 220.92632 289.37894] CT
0.149 GC
/Helvetica 13.194 F
GS
[1 0 0 1 0 0] CT
-4.5 13 moveto 
1 -1 scale
(1) t 
GR
GR
GS
[0.75789 0 0 0.75789 276.12633 289.37894] CT
0.149 GC
/Helvetica 13.194 F
GS
[1 0 0 1 0 0] CT
-10.5 13 moveto 
1 -1 scale
(1.5) t 
GR
GR
GS
[0.75789 0 0 0.75789 331.32631 289.37894] CT
0.149 GC
/Helvetica 13.194 F
GS
[1 0 0 1 0 0] CT
-4.5 13 moveto 
1 -1 scale
(2) t 
GR
GR
GS
[0.75789 0 0 0.75789 386.52632 289.37894] CT
0.149 GC
/Helvetica 13.194 F
GS
[1 0 0 1 0 0] CT
-10.5 13 moveto 
1 -1 scale
(2.5) t 
GR
GR
GS
[0.75789 0 0 0.75789 0 0.41052] CT
0.149 GC
2 setlinecap
1 LJ
0.66 LW
N
73 376 M
73 32 L
S
GR
GS
[0.75789 0 0 0.75789 0 0.41052] CT
0.149 GC
2 setlinecap
1 LJ
0.66 LW
N
510 376 M
510 32 L
S
GR
GS
[0.75789 0 0 0.75789 0 0.41052] CT
0.149 GC
2 setlinecap
1 LJ
0.66 LW
N
73 376 M
77.37 376 L
S
GR
GS
[0.75789 0 0 0.75789 0 0.41052] CT
0.149 GC
2 setlinecap
1 LJ
0.66 LW
N
73 318.667 M
77.37 318.667 L
S
GR
GS
[0.75789 0 0 0.75789 0 0.41052] CT
0.149 GC
2 setlinecap
1 LJ
0.66 LW
N
73 261.333 M
77.37 261.333 L
S
GR
GS
[0.75789 0 0 0.75789 0 0.41052] CT
0.149 GC
2 setlinecap
1 LJ
0.66 LW
N
73 204 M
77.37 204 L
S
GR
GS
[0.75789 0 0 0.75789 0 0.41052] CT
0.149 GC
2 setlinecap
1 LJ
0.66 LW
N
73 146.667 M
77.37 146.667 L
S
GR
GS
[0.75789 0 0 0.75789 0 0.41052] CT
0.149 GC
2 setlinecap
1 LJ
0.66 LW
N
73 89.333 M
77.37 89.333 L
S
GR
GS
[0.75789 0 0 0.75789 0 0.41052] CT
0.149 GC
2 setlinecap
1 LJ
0.66 LW
N
73 32 M
77.37 32 L
S
GR
GS
[0.75789 0 0 0.75789 0 0.41052] CT
0.149 GC
2 setlinecap
1 LJ
0.66 LW
N
510 376 M
505.63 376 L
S
GR
GS
[0.75789 0 0 0.75789 0 0.41052] CT
0.149 GC
2 setlinecap
1 LJ
0.66 LW
N
510 318.667 M
505.63 318.667 L
S
GR
GS
[0.75789 0 0 0.75789 0 0.41052] CT
0.149 GC
2 setlinecap
1 LJ
0.66 LW
N
510 261.333 M
505.63 261.333 L
S
GR
GS
[0.75789 0 0 0.75789 0 0.41052] CT
0.149 GC
2 setlinecap
1 LJ
0.66 LW
N
510 204 M
505.63 204 L
S
GR
GS
[0.75789 0 0 0.75789 0 0.41052] CT
0.149 GC
2 setlinecap
1 LJ
0.66 LW
N
510 146.667 M
505.63 146.667 L
S
GR
GS
[0.75789 0 0 0.75789 0 0.41052] CT
0.149 GC
2 setlinecap
1 LJ
0.66 LW
N
510 89.333 M
505.63 89.333 L
S
GR
GS
[0.75789 0 0 0.75789 0 0.41052] CT
0.149 GC
2 setlinecap
1 LJ
0.66 LW
N
510 32 M
505.63 32 L
S
GR
GS
[0.75789 0 0 0.75789 51.32632 285.37895] CT
0.149 GC
/Helvetica 13.194 F
GS
[1 0 0 1 0 0] CT
-34 4.5 moveto 
1 -1 scale
(-0.05) t 
GR
GR
GS
[0.75789 0 0 0.75789 51.32632 241.92631] CT
0.149 GC
/Helvetica 13.194 F
GS
[1 0 0 1 0 0] CT
-9 4.5 moveto 
1 -1 scale
(0) t 
GR
GR
GS
[0.75789 0 0 0.75789 51.32632 198.47369] CT
0.149 GC
/Helvetica 13.194 F
GS
[1 0 0 1 0 0] CT
-29 4.5 moveto 
1 -1 scale
(0.05) t 
GR
GR
GS
[0.75789 0 0 0.75789 51.32632 155.02105] CT
0.149 GC
/Helvetica 13.194 F
GS
[1 0 0 1 0 0] CT
-21 4.5 moveto 
1 -1 scale
(0.1) t 
GR
GR
GS
[0.75789 0 0 0.75789 51.32632 111.56841] CT
0.149 GC
/Helvetica 13.194 F
GS
[1 0 0 1 0 0] CT
-29 4.5 moveto 
1 -1 scale
(0.15) t 
GR
GR
GS
[0.75789 0 0 0.75789 51.32632 68.11578] CT
0.149 GC
/Helvetica 13.194 F
GS
[1 0 0 1 0 0] CT
-21 4.5 moveto 
1 -1 scale
(0.2) t 
GR
GR
GS
[0.75789 0 0 0.75789 51.32632 24.66315] CT
0.149 GC
/Helvetica 13.194 F
GS
[1 0 0 1 0 0] CT
-29 4.5 moveto 
1 -1 scale
(0.25) t 
GR
GR
GS
[0.75789 0 0 0.75789 0 0.41052] CT
0 0 1 RC
1 LJ
2.639 LW
N
145.833 318.667 M
148.967 316.907 L
151.881 313.335 L
154.623 311.052 L
157.439 308.215 L
160.958 309.206 L
163.673 307.404 L
166.549 308.918 L
169.346 304.824 L
172.021 305.017 L
174.831 301.597 L
177.812 299.602 L
180.22 293.036 L
183.223 286.129 L
186.353 282.642 L
189.396 280.931 L
192.231 281.431 L
195.254 278.708 L
198.398 277.662 L
201.243 273.533 L
204.574 270.411 L
207.651 262.763 L
210.2 259.202 L
213.31 256.699 L
215.791 257.328 L
218.889 257.85 L
221.666 255.044 L
224.562 252.219 L
227.478 250.364 L
230.532 247.146 L
233.787 251.594 L
236.953 248.788 L
240.03 245.228 L
242.317 246.247 L
245.469 239.978 L
248.428 236.341 L
251.473 233.734 L
254.449 232.706 L
257.028 233.172 L
260.25 228.568 L
263.139 231.376 L
266.057 225.409 L
269.013 221.432 L
271.778 219.718 L
274.624 216.014 L
277.13 213.305 L
280.107 212.316 L
282.575 211.005 L
285.174 204.651 L
288.154 201.834 L
291.105 197.901 L
294.026 196.101 L
297.166 195.026 L
299.863 192.399 L
302.949 192.229 L
305.844 189.815 L
309 184.847 L
312.014 185.699 L
314.968 182.618 L
317.832 178.639 L
320.957 180.42 L
324.405 177.656 L
326.945 179.014 L
329.386 174.32 L
332.489 171.958 L
335.044 173.806 L
337.864 171.169 L
340.425 166.925 L
343.277 166.097 L
345.77 164.759 L
348.606 160.713 L
351.541 158.398 L
355.091 157.559 L
357.863 157.188 L
361.65 152.144 L
363.991 150.392 L
366.096 153.797 L
368.413 151.026 L
371.273 150.862 L
373.946 151.87 L
377.072 150.773 L
379.812 151.139 L
382.671 141.947 L
385.149 140.899 L
388.1 138.638 L
390.472 133.236 L
393.564 131.388 L
395.754 129.491 L
398.035 130.582 L
400.663 126.167 L
403.317 128.825 L
405.982 126.396 L
409.081 123.053 L
411.423 120.198 L
414.119 123.028 L
416.849 121.957 L
419.813 120.167 L
422.412 119.851 L
424.963 115.751 L
427.827 112.873 L
430.69 114.491 L
433.991 110.503 L
437.264 107.401 L
440.47 106.21 L
443.097 100.958 L
446.032 99.879 L
448.575 96.863 L
451.349 95.109 L
455.008 92.182 L
457.309 84.538 L
S
GR
GS
[0.75789 0 0 0.75789 0 0.41052] CT
[8 8] 0 setdash
2 LJ
2.639 LW
N
145.833 318.667 M
149.139 315.035 L
152.071 314.214 L
154.889 310.745 L
157.497 312.91 L
160.521 313.087 L
163.567 308.044 L
165.954 305.702 L
168.795 304.781 L
171.893 302.288 L
174.793 298.207 L
177.951 295.367 L
180.524 289.014 L
183.29 284.712 L
186.426 284.68 L
189.286 283.64 L
192.054 285.324 L
195.335 281.62 L
198.487 279.019 L
201.521 273.914 L
204.844 267.896 L
207.991 262.542 L
210.722 262.323 L
212.948 262.079 L
215.511 257.556 L
218.951 257.355 L
221.881 256.181 L
224.649 252.056 L
227.634 252.014 L
230.64 251.48 L
233.538 253.166 L
237.58 251.423 L
239.555 249.251 L
242.442 243.732 L
245.602 241.648 L
248.074 242.322 L
251.3 236.489 L
254.182 235.623 L
256.809 232.948 L
259.886 231.485 L
263 225.846 L
265.601 220.545 L
268.625 219.529 L
271.67 215.297 L
274.332 210.646 L
276.551 207.789 L
279.92 210.048 L
282.646 206.064 L
285.563 203.452 L
288.583 199.228 L
291.799 200.397 L
294.23 198.377 L
297.262 198.042 L
299.949 194.267 L
303.587 195.312 L
306.258 192.834 L
309.41 192.766 L
312.434 192.198 L
315.341 189.486 L
318.428 187.046 L
321.68 183.905 L
324.373 181.653 L
326.73 177.664 L
329.713 181.019 L
332.089 177.141 L
334.284 174.021 L
337.279 166.871 L
339.714 166.35 L
343.199 168.426 L
345.698 165.434 L
348.651 164.463 L
352.188 159.812 L
354.782 159.492 L
358.1 155.987 L
360.773 157.414 L
363.168 161.412 L
365.715 159.404 L
368.254 159.651 L
371.252 152.796 L
373.992 150.623 L
376.352 146.183 L
379.158 148.015 L
382.52 143.483 L
384.974 137.853 L
387.529 137.851 L
389.98 136.418 L
392.769 135.906 L
395.162 137.207 L
398.097 136.004 L
400.258 134.008 L
403.289 137.002 L
405.648 138.519 L
408.129 135.752 L
410.685 129.453 L
413.416 128.079 L
416.623 128.118 L
419.475 128.839 L
422.282 123.076 L
425.408 122.949 L
428.833 123.557 L
431.509 124.199 L
435.193 123.909 L
437.585 113.497 L
440.284 107.493 L
442.983 106.801 L
445.869 102.272 L
448.481 96.516 L
451.807 89.368 L
454.708 84.458 L
457.215 87.32 L
S
GR
GS
[0.75789 0 0 0.75789 0 0.41052] CT
1 GC
N
344 80 M
344 45 L
497 45 L
497 80 L
cp
f
GR
GS
[0.75789 0 0 0.75789 288.7579 41.82013] CT
/Helvetica 11.875 F
GS
[1 0 0 1 0 0] CT
0 4.5 moveto 
1 -1 scale
(estimated position) t 
GR
GR
GS
[0.75789 0 0 0.75789 0 0.41052] CT
0 0 1 RC
1 LJ
2.639 LW
N
348 54.638 M
378 54.638 L
S
GR
GS
[0.75789 0 0 0.75789 288.7579 53.73776] CT
/Helvetica 11.875 F
GS
[1 0 0 1 0 0] CT
0 4.5 moveto 
1 -1 scale
(real position) t 
GR
GR
GS
[0.75789 0 0 0.75789 0 0.41052] CT
[8 8] 0 setdash
2 LJ
2.639 LW
N
348 70.362 M
378 70.362 L
S
GR
GS
[0.75789 0 0 0.75789 0 0.41052] CT
0.149 GC
10.0 ML
0.66 LW
N
344 80 M
344 45 L
497 45 L
497 80 L
cp
S
GR
%%Trailer
%%Pages: 1
%%EOF
