%!PS-Adobe-3.0 EPSF-3.0
%%Creator: (MATLAB, The Mathworks, Inc. Version 9.1.0.441655 \(R2016b\). Operating System: Linux)
%%Title: ./ukf_one_landmark.eps
%%CreationDate: 2017-06-03T22:07:13
%%Pages: (atend)
%%BoundingBox:    26    20   391   299
%%LanguageLevel: 2
%%EndComments
%%BeginProlog
%%BeginResource: procset (Apache XML Graphics Std ProcSet) 1.2 0
%%Version: 1.2 0
%%Copyright: (Copyright 2001-2003,2010 The Apache Software Foundation. License terms: http://www.apache.org/licenses/LICENSE-2.0)
/bd{bind def}bind def
/ld{load def}bd
/GR/grestore ld
/M/moveto ld
/LJ/setlinejoin ld
/C/curveto ld
/f/fill ld
/LW/setlinewidth ld
/GC/setgray ld
/t/show ld
/N/newpath ld
/CT/concat ld
/cp/closepath ld
/S/stroke ld
/L/lineto ld
/CC/setcmykcolor ld
/A/ashow ld
/GS/gsave ld
/RC/setrgbcolor ld
/RM/rmoveto ld
/ML/setmiterlimit ld
/re {4 2 roll M
1 index 0 rlineto
0 exch rlineto
neg 0 rlineto
cp } bd
/_ctm matrix def
/_tm matrix def
/BT { _ctm currentmatrix pop matrix _tm copy pop 0 0 moveto } bd
/ET { _ctm setmatrix } bd
/iTm { _ctm setmatrix _tm concat } bd
/Tm { _tm astore pop iTm 0 0 moveto } bd
/ux 0.0 def
/uy 0.0 def
/F {
  /Tp exch def
  /Tf exch def
  Tf findfont Tp scalefont setfont
  /cf Tf def  /cs Tp def
} bd
/ULS {currentpoint /uy exch def /ux exch def} bd
/ULE {
  /Tcx currentpoint pop def
  gsave
  newpath
  cf findfont cs scalefont dup
  /FontMatrix get 0 get /Ts exch def /FontInfo get dup
  /UnderlinePosition get Ts mul /To exch def
  /UnderlineThickness get Ts mul /Tt exch def
  ux uy To add moveto  Tcx uy To add lineto
  Tt setlinewidth stroke
  grestore
} bd
/OLE {
  /Tcx currentpoint pop def
  gsave
  newpath
  cf findfont cs scalefont dup
  /FontMatrix get 0 get /Ts exch def /FontInfo get dup
  /UnderlinePosition get Ts mul /To exch def
  /UnderlineThickness get Ts mul /Tt exch def
  ux uy To add cs add moveto Tcx uy To add cs add lineto
  Tt setlinewidth stroke
  grestore
} bd
/SOE {
  /Tcx currentpoint pop def
  gsave
  newpath
  cf findfont cs scalefont dup
  /FontMatrix get 0 get /Ts exch def /FontInfo get dup
  /UnderlinePosition get Ts mul /To exch def
  /UnderlineThickness get Ts mul /Tt exch def
  ux uy To add cs 10 mul 26 idiv add moveto Tcx uy To add cs 10 mul 26 idiv add lineto
  Tt setlinewidth stroke
  grestore
} bd
/QT {
/Y22 exch store
/X22 exch store
/Y21 exch store
/X21 exch store
currentpoint
/Y21 load 2 mul add 3 div exch
/X21 load 2 mul add 3 div exch
/X21 load 2 mul /X22 load add 3 div
/Y21 load 2 mul /Y22 load add 3 div
/X22 load /Y22 load curveto
} bd
/SSPD {
dup length /d exch dict def
{
/v exch def
/k exch def
currentpagedevice k known {
/cpdv currentpagedevice k get def
v cpdv ne {
/upd false def
/nullv v type /nulltype eq def
/nullcpdv cpdv type /nulltype eq def
nullv nullcpdv or
{
/upd true def
} {
/sametype v type cpdv type eq def
sametype {
v type /arraytype eq {
/vlen v length def
/cpdvlen cpdv length def
vlen cpdvlen eq {
0 1 vlen 1 sub {
/i exch def
/obj v i get def
/cpdobj cpdv i get def
obj cpdobj ne {
/upd true def
exit
} if
} for
} {
/upd true def
} ifelse
} {
v type /dicttype eq {
v {
/dv exch def
/dk exch def
/cpddv cpdv dk get def
dv cpddv ne {
/upd true def
exit
} if
} forall
} {
/upd true def
} ifelse
} ifelse
} if
} ifelse
upd true eq {
d k v put
} if
} if
} if
} forall
d length 0 gt {
d setpagedevice
} if
} bd
/RE { % /NewFontName [NewEncodingArray] /FontName RE -
  findfont dup length dict begin
  {
    1 index /FID ne
    {def} {pop pop} ifelse
  } forall
  /Encoding exch def
  /FontName 1 index def
  currentdict definefont pop
  end
} bind def
%%EndResource
%%BeginResource: procset (Apache XML Graphics EPS ProcSet) 1.0 0
%%Version: 1.0 0
%%Copyright: (Copyright 2002-2003 The Apache Software Foundation. License terms: http://www.apache.org/licenses/LICENSE-2.0)
/BeginEPSF { %def
/b4_Inc_state save def         % Save state for cleanup
/dict_count countdictstack def % Count objects on dict stack
/op_count count 1 sub def      % Count objects on operand stack
userdict begin                 % Push userdict on dict stack
/showpage { } def              % Redefine showpage, { } = null proc
0 setgray 0 setlinecap         % Prepare graphics state
1 setlinewidth 0 setlinejoin
10 setmiterlimit [ ] 0 setdash newpath
/languagelevel where           % If level not equal to 1 then
{pop languagelevel             % set strokeadjust and
1 ne                           % overprint to their defaults.
{false setstrokeadjust false setoverprint
} if
} if
} bd
/EndEPSF { %def
count op_count sub {pop} repeat            % Clean up stacks
countdictstack dict_count sub {end} repeat
b4_Inc_state restore
} bd
%%EndResource
%FOPBeginFontDict
%%IncludeResource: font Courier-Bold
%%IncludeResource: font Helvetica
%%IncludeResource: font Courier-BoldOblique
%%IncludeResource: font Courier-Oblique
%%IncludeResource: font Times-Roman
%%IncludeResource: font Helvetica-BoldOblique
%%IncludeResource: font Helvetica-Bold
%%IncludeResource: font Helvetica-Oblique
%%IncludeResource: font Times-BoldItalic
%%IncludeResource: font Courier
%%IncludeResource: font Times-Italic
%%IncludeResource: font Times-Bold
%%IncludeResource: font Symbol
%%IncludeResource: font ZapfDingbats
%FOPEndFontDict
%%BeginResource: encoding WinAnsiEncoding
/WinAnsiEncoding [
/.notdef /.notdef /.notdef /.notdef /.notdef
/.notdef /.notdef /.notdef /.notdef /.notdef
/.notdef /.notdef /.notdef /.notdef /.notdef
/.notdef /.notdef /.notdef /.notdef /.notdef
/.notdef /.notdef /.notdef /.notdef /.notdef
/.notdef /.notdef /.notdef /.notdef /.notdef
/.notdef /.notdef /space /exclam /quotedbl
/numbersign /dollar /percent /ampersand /quotesingle
/parenleft /parenright /asterisk /plus /comma
/hyphen /period /slash /zero /one
/two /three /four /five /six
/seven /eight /nine /colon /semicolon
/less /equal /greater /question /at
/A /B /C /D /E
/F /G /H /I /J
/K /L /M /N /O
/P /Q /R /S /T
/U /V /W /X /Y
/Z /bracketleft /backslash /bracketright /asciicircum
/underscore /quoteleft /a /b /c
/d /e /f /g /h
/i /j /k /l /m
/n /o /p /q /r
/s /t /u /v /w
/x /y /z /braceleft /bar
/braceright /asciitilde /bullet /Euro /bullet
/quotesinglbase /florin /quotedblbase /ellipsis /dagger
/daggerdbl /circumflex /perthousand /Scaron /guilsinglleft
/OE /bullet /Zcaron /bullet /bullet
/quoteleft /quoteright /quotedblleft /quotedblright /bullet
/endash /emdash /asciitilde /trademark /scaron
/guilsinglright /oe /bullet /zcaron /Ydieresis
/space /exclamdown /cent /sterling /currency
/yen /brokenbar /section /dieresis /copyright
/ordfeminine /guillemotleft /logicalnot /sfthyphen /registered
/macron /degree /plusminus /twosuperior /threesuperior
/acute /mu /paragraph /middot /cedilla
/onesuperior /ordmasculine /guillemotright /onequarter /onehalf
/threequarters /questiondown /Agrave /Aacute /Acircumflex
/Atilde /Adieresis /Aring /AE /Ccedilla
/Egrave /Eacute /Ecircumflex /Edieresis /Igrave
/Iacute /Icircumflex /Idieresis /Eth /Ntilde
/Ograve /Oacute /Ocircumflex /Otilde /Odieresis
/multiply /Oslash /Ugrave /Uacute /Ucircumflex
/Udieresis /Yacute /Thorn /germandbls /agrave
/aacute /acircumflex /atilde /adieresis /aring
/ae /ccedilla /egrave /eacute /ecircumflex
/edieresis /igrave /iacute /icircumflex /idieresis
/eth /ntilde /ograve /oacute /ocircumflex
/otilde /odieresis /divide /oslash /ugrave
/uacute /ucircumflex /udieresis /yacute /thorn
/ydieresis
] def
%%EndResource
%FOPBeginFontReencode
/Courier-Bold findfont
dup length dict begin
  {1 index /FID ne {def} {pop pop} ifelse} forall
  /Encoding WinAnsiEncoding def
  currentdict
end
/Courier-Bold exch definefont pop
/Helvetica findfont
dup length dict begin
  {1 index /FID ne {def} {pop pop} ifelse} forall
  /Encoding WinAnsiEncoding def
  currentdict
end
/Helvetica exch definefont pop
/Courier-BoldOblique findfont
dup length dict begin
  {1 index /FID ne {def} {pop pop} ifelse} forall
  /Encoding WinAnsiEncoding def
  currentdict
end
/Courier-BoldOblique exch definefont pop
/Courier-Oblique findfont
dup length dict begin
  {1 index /FID ne {def} {pop pop} ifelse} forall
  /Encoding WinAnsiEncoding def
  currentdict
end
/Courier-Oblique exch definefont pop
/Times-Roman findfont
dup length dict begin
  {1 index /FID ne {def} {pop pop} ifelse} forall
  /Encoding WinAnsiEncoding def
  currentdict
end
/Times-Roman exch definefont pop
/Helvetica-BoldOblique findfont
dup length dict begin
  {1 index /FID ne {def} {pop pop} ifelse} forall
  /Encoding WinAnsiEncoding def
  currentdict
end
/Helvetica-BoldOblique exch definefont pop
/Helvetica-Bold findfont
dup length dict begin
  {1 index /FID ne {def} {pop pop} ifelse} forall
  /Encoding WinAnsiEncoding def
  currentdict
end
/Helvetica-Bold exch definefont pop
/Helvetica-Oblique findfont
dup length dict begin
  {1 index /FID ne {def} {pop pop} ifelse} forall
  /Encoding WinAnsiEncoding def
  currentdict
end
/Helvetica-Oblique exch definefont pop
/Times-BoldItalic findfont
dup length dict begin
  {1 index /FID ne {def} {pop pop} ifelse} forall
  /Encoding WinAnsiEncoding def
  currentdict
end
/Times-BoldItalic exch definefont pop
/Courier findfont
dup length dict begin
  {1 index /FID ne {def} {pop pop} ifelse} forall
  /Encoding WinAnsiEncoding def
  currentdict
end
/Courier exch definefont pop
/Times-Italic findfont
dup length dict begin
  {1 index /FID ne {def} {pop pop} ifelse} forall
  /Encoding WinAnsiEncoding def
  currentdict
end
/Times-Italic exch definefont pop
/Times-Bold findfont
dup length dict begin
  {1 index /FID ne {def} {pop pop} ifelse} forall
  /Encoding WinAnsiEncoding def
  currentdict
end
/Times-Bold exch definefont pop
%FOPEndFontReencode
%%EndProlog
%%Page: 1 1
%%PageBoundingBox: 0 0 424 318
%%BeginPageSetup
[1 0 0 -1 0 318] CT
%%EndPageSetup
GS
[0.75789 0 0 0.75789 0 -0.31577] CT
N
0 0 M
560 0 L
560 420 L
0 420 L
0 0 L
cp
clip
1 GC
N
0 0 560 420 re
f
GR
GS
[0.75789 0 0 0.75789 0 -0.31577] CT
1 GC
N
0 0 560 420 re
f
GR
GS
[0.75789 0 0 0.75789 0 -0.31577] CT
1 GC
N
73 374 M
507 374 L
507 31 L
73 31 L
cp
f
GR
GS
[0.75789 0 0 0.75789 0 -0.31577] CT
0.149 GC
2 setlinecap
1 LJ
0.66 LW
N
73 374 M
507 374 L
S
GR
GS
[0.75789 0 0 0.75789 0 -0.31577] CT
0.149 GC
2 setlinecap
1 LJ
0.66 LW
N
73 31 M
507 31 L
S
GR
GS
[0.75789 0 0 0.75789 0 -0.31577] CT
0.149 GC
2 setlinecap
1 LJ
0.66 LW
N
73 374 M
73 369.66 L
S
GR
GS
[0.75789 0 0 0.75789 0 -0.31577] CT
0.149 GC
2 setlinecap
1 LJ
0.66 LW
N
145.333 374 M
145.333 369.66 L
S
GR
GS
[0.75789 0 0 0.75789 0 -0.31577] CT
0.149 GC
2 setlinecap
1 LJ
0.66 LW
N
217.667 374 M
217.667 369.66 L
S
GR
GS
[0.75789 0 0 0.75789 0 -0.31577] CT
0.149 GC
2 setlinecap
1 LJ
0.66 LW
N
290 374 M
290 369.66 L
S
GR
GS
[0.75789 0 0 0.75789 0 -0.31577] CT
0.149 GC
2 setlinecap
1 LJ
0.66 LW
N
362.333 374 M
362.333 369.66 L
S
GR
GS
[0.75789 0 0 0.75789 0 -0.31577] CT
0.149 GC
2 setlinecap
1 LJ
0.66 LW
N
434.667 374 M
434.667 369.66 L
S
GR
GS
[0.75789 0 0 0.75789 0 -0.31577] CT
0.149 GC
2 setlinecap
1 LJ
0.66 LW
N
507 374 M
507 369.66 L
S
GR
GS
[0.75789 0 0 0.75789 0 -0.31577] CT
0.149 GC
2 setlinecap
1 LJ
0.66 LW
N
73 31 M
73 35.34 L
S
GR
GS
[0.75789 0 0 0.75789 0 -0.31577] CT
0.149 GC
2 setlinecap
1 LJ
0.66 LW
N
145.333 31 M
145.333 35.34 L
S
GR
GS
[0.75789 0 0 0.75789 0 -0.31577] CT
0.149 GC
2 setlinecap
1 LJ
0.66 LW
N
217.667 31 M
217.667 35.34 L
S
GR
GS
[0.75789 0 0 0.75789 0 -0.31577] CT
0.149 GC
2 setlinecap
1 LJ
0.66 LW
N
290 31 M
290 35.34 L
S
GR
GS
[0.75789 0 0 0.75789 0 -0.31577] CT
0.149 GC
2 setlinecap
1 LJ
0.66 LW
N
362.333 31 M
362.333 35.34 L
S
GR
GS
[0.75789 0 0 0.75789 0 -0.31577] CT
0.149 GC
2 setlinecap
1 LJ
0.66 LW
N
434.667 31 M
434.667 35.34 L
S
GR
GS
[0.75789 0 0 0.75789 0 -0.31577] CT
0.149 GC
2 setlinecap
1 LJ
0.66 LW
N
507 31 M
507 35.34 L
S
GR
GS
[0.75789 0 0 0.75789 55.32632 287.13684] CT
0.149 GC
/Helvetica 13.194 F
GS
[1 0 0 1 0 0] CT
-13 13 moveto 
1 -1 scale
(-0.5) t 
GR
GR
GS
[0.75789 0 0 0.75789 110.14736 287.13684] CT
0.149 GC
/Helvetica 13.194 F
GS
[1 0 0 1 0 0] CT
-4.5 13 moveto 
1 -1 scale
(0) t 
GR
GR
GS
[0.75789 0 0 0.75789 164.96842 287.13684] CT
0.149 GC
/Helvetica 13.194 F
GS
[1 0 0 1 0 0] CT
-10.5 13 moveto 
1 -1 scale
(0.5) t 
GR
GR
GS
[0.75789 0 0 0.75789 219.78947 287.13684] CT
0.149 GC
/Helvetica 13.194 F
GS
[1 0 0 1 0 0] CT
-4.5 13 moveto 
1 -1 scale
(1) t 
GR
GR
GS
[0.75789 0 0 0.75789 274.61053 287.13684] CT
0.149 GC
/Helvetica 13.194 F
GS
[1 0 0 1 0 0] CT
-10.5 13 moveto 
1 -1 scale
(1.5) t 
GR
GR
GS
[0.75789 0 0 0.75789 329.43157 287.13684] CT
0.149 GC
/Helvetica 13.194 F
GS
[1 0 0 1 0 0] CT
-4.5 13 moveto 
1 -1 scale
(2) t 
GR
GR
GS
[0.75789 0 0 0.75789 384.25263 287.13684] CT
0.149 GC
/Helvetica 13.194 F
GS
[1 0 0 1 0 0] CT
-10.5 13 moveto 
1 -1 scale
(2.5) t 
GR
GR
GS
[0.75789 0 0 0.75789 0 -0.31577] CT
0.149 GC
2 setlinecap
1 LJ
0.66 LW
N
73 374 M
73 31 L
S
GR
GS
[0.75789 0 0 0.75789 0 -0.31577] CT
0.149 GC
2 setlinecap
1 LJ
0.66 LW
N
507 374 M
507 31 L
S
GR
GS
[0.75789 0 0 0.75789 0 -0.31577] CT
0.149 GC
2 setlinecap
1 LJ
0.66 LW
N
73 374 M
77.34 374 L
S
GR
GS
[0.75789 0 0 0.75789 0 -0.31577] CT
0.149 GC
2 setlinecap
1 LJ
0.66 LW
N
73 325 M
77.34 325 L
S
GR
GS
[0.75789 0 0 0.75789 0 -0.31577] CT
0.149 GC
2 setlinecap
1 LJ
0.66 LW
N
73 276 M
77.34 276 L
S
GR
GS
[0.75789 0 0 0.75789 0 -0.31577] CT
0.149 GC
2 setlinecap
1 LJ
0.66 LW
N
73 227 M
77.34 227 L
S
GR
GS
[0.75789 0 0 0.75789 0 -0.31577] CT
0.149 GC
2 setlinecap
1 LJ
0.66 LW
N
73 178 M
77.34 178 L
S
GR
GS
[0.75789 0 0 0.75789 0 -0.31577] CT
0.149 GC
2 setlinecap
1 LJ
0.66 LW
N
73 129 M
77.34 129 L
S
GR
GS
[0.75789 0 0 0.75789 0 -0.31577] CT
0.149 GC
2 setlinecap
1 LJ
0.66 LW
N
73 80 M
77.34 80 L
S
GR
GS
[0.75789 0 0 0.75789 0 -0.31577] CT
0.149 GC
2 setlinecap
1 LJ
0.66 LW
N
73 31 M
77.34 31 L
S
GR
GS
[0.75789 0 0 0.75789 0 -0.31577] CT
0.149 GC
2 setlinecap
1 LJ
0.66 LW
N
507 374 M
502.66 374 L
S
GR
GS
[0.75789 0 0 0.75789 0 -0.31577] CT
0.149 GC
2 setlinecap
1 LJ
0.66 LW
N
507 325 M
502.66 325 L
S
GR
GS
[0.75789 0 0 0.75789 0 -0.31577] CT
0.149 GC
2 setlinecap
1 LJ
0.66 LW
N
507 276 M
502.66 276 L
S
GR
GS
[0.75789 0 0 0.75789 0 -0.31577] CT
0.149 GC
2 setlinecap
1 LJ
0.66 LW
N
507 227 M
502.66 227 L
S
GR
GS
[0.75789 0 0 0.75789 0 -0.31577] CT
0.149 GC
2 setlinecap
1 LJ
0.66 LW
N
507 178 M
502.66 178 L
S
GR
GS
[0.75789 0 0 0.75789 0 -0.31577] CT
0.149 GC
2 setlinecap
1 LJ
0.66 LW
N
507 129 M
502.66 129 L
S
GR
GS
[0.75789 0 0 0.75789 0 -0.31577] CT
0.149 GC
2 setlinecap
1 LJ
0.66 LW
N
507 80 M
502.66 80 L
S
GR
GS
[0.75789 0 0 0.75789 0 -0.31577] CT
0.149 GC
2 setlinecap
1 LJ
0.66 LW
N
507 31 M
502.66 31 L
S
GR
GS
[0.75789 0 0 0.75789 51.32631 283.13684] CT
0.149 GC
/Helvetica 13.194 F
GS
[1 0 0 1 0 0] CT
-34 4.5 moveto 
1 -1 scale
(-0.05) t 
GR
GR
GS
[0.75789 0 0 0.75789 51.32631 246.00001] CT
0.149 GC
/Helvetica 13.194 F
GS
[1 0 0 1 0 0] CT
-9 4.5 moveto 
1 -1 scale
(0) t 
GR
GR
GS
[0.75789 0 0 0.75789 51.32631 208.86317] CT
0.149 GC
/Helvetica 13.194 F
GS
[1 0 0 1 0 0] CT
-29 4.5 moveto 
1 -1 scale
(0.05) t 
GR
GR
GS
[0.75789 0 0 0.75789 51.32631 171.72633] CT
0.149 GC
/Helvetica 13.194 F
GS
[1 0 0 1 0 0] CT
-21 4.5 moveto 
1 -1 scale
(0.1) t 
GR
GR
GS
[0.75789 0 0 0.75789 51.32631 134.58949] CT
0.149 GC
/Helvetica 13.194 F
GS
[1 0 0 1 0 0] CT
-29 4.5 moveto 
1 -1 scale
(0.15) t 
GR
GR
GS
[0.75789 0 0 0.75789 51.32631 97.45265] CT
0.149 GC
/Helvetica 13.194 F
GS
[1 0 0 1 0 0] CT
-21 4.5 moveto 
1 -1 scale
(0.2) t 
GR
GR
GS
[0.75789 0 0 0.75789 51.32631 60.31581] CT
0.149 GC
/Helvetica 13.194 F
GS
[1 0 0 1 0 0] CT
-29 4.5 moveto 
1 -1 scale
(0.25) t 
GR
GR
GS
[0.75789 0 0 0.75789 51.32631 23.17896] CT
0.149 GC
/Helvetica 13.194 F
GS
[1 0 0 1 0 0] CT
-21 4.5 moveto 
1 -1 scale
(0.3) t 
GR
GR
GS
[0.75789 0 0 0.75789 0 -0.31577] CT
0 0 1 RC
1 LJ
2.639 LW
N
145.333 325 M
148.234 323.024 L
151.136 321.036 L
154.028 319.029 L
156.945 317.022 L
159.854 314.997 L
162.752 312.949 L
165.659 310.892 L
168.547 308.805 L
171.443 306.708 L
174.335 304.591 L
177.235 302.466 L
180.125 300.318 L
183.02 298.158 L
185.899 295.968 L
188.79 293.771 L
191.683 291.557 L
194.586 289.335 L
197.484 287.092 L
200.38 284.827 L
203.278 282.546 L
206.165 280.233 L
209.066 277.916 L
211.95 275.561 L
214.862 273.219 L
217.762 270.842 L
220.647 268.427 L
223.538 265.998 L
226.434 263.555 L
229.323 261.08 L
232.215 258.586 L
235.1 256.059 L
238.016 253.56 L
240.921 251.021 L
243.805 248.423 L
246.7 245.82 L
249.592 243.186 L
252.504 240.567 L
255.401 237.893 L
258.309 235.215 L
261.196 232.467 L
264.117 229.769 L
267.018 226.998 L
269.931 224.229 L
272.82 221.376 L
275.705 218.483 L
278.604 215.599 L
281.512 212.708 L
284.418 209.788 L
287.319 206.826 L
290.221 203.841 L
293.135 200.857 L
296.04 197.817 L
298.943 194.739 L
301.85 191.64 L
304.75 188.488 L
307.665 185.36 L
310.582 182.202 L
313.481 178.949 L
316.399 175.737 L
319.322 172.524 L
322.236 169.231 L
325.155 165.935 L
328.07 162.59 L
330.997 159.263 L
333.925 155.925 L
336.865 152.614 L
339.801 149.262 L
342.732 145.843 L
345.672 142.455 L
348.607 139.022 L
351.547 135.58 L
354.49 132.153 L
357.439 128.748 L
360.392 125.36 L
363.359 122.074 L
366.319 118.725 L
369.28 115.376 L
372.239 111.99 L
375.2 108.661 L
378.148 105.193 L
381.105 101.841 L
384.075 98.653 L
387.048 95.535 L
390.027 92.527 L
393.01 89.607 L
395.99 86.707 L
398.985 84.125 L
401.966 81.371 L
404.952 78.871 L
407.931 76.345 L
410.911 74.042 L
413.887 71.823 L
416.855 69.666 L
419.824 67.783 L
422.79 66.13 L
425.754 64.712 L
428.715 63.625 L
431.66 62.362 L
434.594 61.513 L
437.521 61.041 L
440.439 60.73 L
443.339 60.671 L
446.224 60.866 L
449.088 61.306 L
451.928 61.932 L
454.744 62.884 L
457.534 64.157 L
460.294 65.615 L
463.021 67.441 L
S
GR
GS
[0.75789 0 0 0.75789 0 -0.31577] CT
[8 8] 0 setdash
2 LJ
2.639 LW
N
145.333 325 M
148.234 322.86 L
151.14 320.869 L
154.027 318.875 L
156.961 317.048 L
159.865 315.094 L
162.755 313.146 L
165.669 311.047 L
168.544 309.017 L
171.445 306.956 L
174.334 304.967 L
177.24 303.119 L
180.122 301.448 L
183.02 299.562 L
185.888 297.612 L
188.786 295.621 L
191.679 293.677 L
194.588 291.608 L
197.483 289.767 L
200.376 287.657 L
203.275 285.719 L
206.152 283.756 L
209.061 281.645 L
211.933 279.758 L
214.861 277.858 L
217.751 275.811 L
220.624 273.99 L
223.515 272.049 L
226.412 270.07 L
229.294 268.042 L
232.184 266.061 L
235.061 264.09 L
237.991 262.196 L
240.884 260.425 L
243.751 258.383 L
246.646 256.476 L
249.53 254.468 L
252.448 252.527 L
255.33 250.434 L
258.237 248.462 L
261.102 246.522 L
264.037 244.481 L
266.915 242.567 L
269.825 240.634 L
272.688 238.709 L
275.559 236.699 L
278.453 234.87 L
281.351 232.939 L
284.24 231.15 L
287.122 229.286 L
290.007 227.523 L
292.908 225.565 L
295.79 223.505 L
298.673 221.412 L
301.558 219.481 L
304.435 217.274 L
307.333 215.437 L
310.224 213.399 L
313.083 211.581 L
315.982 209.577 L
318.878 207.664 L
321.752 205.659 L
324.64 203.645 L
327.517 201.561 L
330.41 199.62 L
333.299 197.658 L
336.204 195.548 L
339.094 193.527 L
341.973 191.474 L
344.868 189.464 L
347.748 187.52 L
350.633 185.395 L
353.52 183.505 L
356.41 181.571 L
359.3 179.716 L
362.211 177.778 L
365.098 175.833 L
367.988 173.83 L
370.863 171.963 L
373.749 170.034 L
376.598 168.119 L
379.476 166.068 L
382.369 164.09 L
385.261 161.973 L
388.155 160.085 L
391.052 158.083 L
393.942 155.924 L
396.867 153.931 L
399.737 152.029 L
402.636 150.233 L
405.512 148.266 L
408.41 146.2 L
411.294 144.215 L
414.168 142.164 L
417.061 140.115 L
419.959 138.033 L
422.856 136.14 L
425.766 134.338 L
428.632 132.278 L
431.525 130.325 L
434.427 128.58 L
437.321 126.713 L
440.224 124.669 L
443.124 122.699 L
446.025 120.651 L
448.916 118.592 L
451.802 116.757 L
454.705 114.716 L
457.592 112.742 L
460.489 110.743 L
S
GR
GS
[0.75789 0 0 0.75789 0 -0.31577] CT
1 GC
N
341 79 M
341 44 L
494 44 L
494 79 L
cp
f
GR
GS
[0.75789 0 0 0.75789 286.48421 40.33595] CT
/Helvetica 11.875 F
GS
[1 0 0 1 0 0] CT
0 4.5 moveto 
1 -1 scale
(estimated position) t 
GR
GR
GS
[0.75789 0 0 0.75789 0 -0.31577] CT
0 0 1 RC
1 LJ
2.639 LW
N
345 53.638 M
375 53.638 L
S
GR
GS
[0.75789 0 0 0.75789 286.48421 52.25357] CT
/Helvetica 11.875 F
GS
[1 0 0 1 0 0] CT
0 4.5 moveto 
1 -1 scale
(real position) t 
GR
GR
GS
[0.75789 0 0 0.75789 0 -0.31577] CT
[8 8] 0 setdash
2 LJ
2.639 LW
N
345 69.362 M
375 69.362 L
S
GR
GS
[0.75789 0 0 0.75789 0 -0.31577] CT
0.149 GC
10.0 ML
0.66 LW
N
341 79 M
341 44 L
494 44 L
494 79 L
cp
S
GR
%%Trailer
%%Pages: 1
%%EOF
