%!PS-Adobe-3.0 EPSF-3.0
%%Creator: (MATLAB, The Mathworks, Inc. Version 9.1.0.441655 \(R2016b\). Operating System: Linux)
%%Title: ./UPF_zero_noise.eps
%%CreationDate: 2017-06-03T22:18:16
%%Pages: (atend)
%%BoundingBox:    29    21   394   301
%%LanguageLevel: 2
%%EndComments
%%BeginProlog
%%BeginResource: procset (Apache XML Graphics Std ProcSet) 1.2 0
%%Version: 1.2 0
%%Copyright: (Copyright 2001-2003,2010 The Apache Software Foundation. License terms: http://www.apache.org/licenses/LICENSE-2.0)
/bd{bind def}bind def
/ld{load def}bd
/GR/grestore ld
/M/moveto ld
/LJ/setlinejoin ld
/C/curveto ld
/f/fill ld
/LW/setlinewidth ld
/GC/setgray ld
/t/show ld
/N/newpath ld
/CT/concat ld
/cp/closepath ld
/S/stroke ld
/L/lineto ld
/CC/setcmykcolor ld
/A/ashow ld
/GS/gsave ld
/RC/setrgbcolor ld
/RM/rmoveto ld
/ML/setmiterlimit ld
/re {4 2 roll M
1 index 0 rlineto
0 exch rlineto
neg 0 rlineto
cp } bd
/_ctm matrix def
/_tm matrix def
/BT { _ctm currentmatrix pop matrix _tm copy pop 0 0 moveto } bd
/ET { _ctm setmatrix } bd
/iTm { _ctm setmatrix _tm concat } bd
/Tm { _tm astore pop iTm 0 0 moveto } bd
/ux 0.0 def
/uy 0.0 def
/F {
  /Tp exch def
  /Tf exch def
  Tf findfont Tp scalefont setfont
  /cf Tf def  /cs Tp def
} bd
/ULS {currentpoint /uy exch def /ux exch def} bd
/ULE {
  /Tcx currentpoint pop def
  gsave
  newpath
  cf findfont cs scalefont dup
  /FontMatrix get 0 get /Ts exch def /FontInfo get dup
  /UnderlinePosition get Ts mul /To exch def
  /UnderlineThickness get Ts mul /Tt exch def
  ux uy To add moveto  Tcx uy To add lineto
  Tt setlinewidth stroke
  grestore
} bd
/OLE {
  /Tcx currentpoint pop def
  gsave
  newpath
  cf findfont cs scalefont dup
  /FontMatrix get 0 get /Ts exch def /FontInfo get dup
  /UnderlinePosition get Ts mul /To exch def
  /UnderlineThickness get Ts mul /Tt exch def
  ux uy To add cs add moveto Tcx uy To add cs add lineto
  Tt setlinewidth stroke
  grestore
} bd
/SOE {
  /Tcx currentpoint pop def
  gsave
  newpath
  cf findfont cs scalefont dup
  /FontMatrix get 0 get /Ts exch def /FontInfo get dup
  /UnderlinePosition get Ts mul /To exch def
  /UnderlineThickness get Ts mul /Tt exch def
  ux uy To add cs 10 mul 26 idiv add moveto Tcx uy To add cs 10 mul 26 idiv add lineto
  Tt setlinewidth stroke
  grestore
} bd
/QT {
/Y22 exch store
/X22 exch store
/Y21 exch store
/X21 exch store
currentpoint
/Y21 load 2 mul add 3 div exch
/X21 load 2 mul add 3 div exch
/X21 load 2 mul /X22 load add 3 div
/Y21 load 2 mul /Y22 load add 3 div
/X22 load /Y22 load curveto
} bd
/SSPD {
dup length /d exch dict def
{
/v exch def
/k exch def
currentpagedevice k known {
/cpdv currentpagedevice k get def
v cpdv ne {
/upd false def
/nullv v type /nulltype eq def
/nullcpdv cpdv type /nulltype eq def
nullv nullcpdv or
{
/upd true def
} {
/sametype v type cpdv type eq def
sametype {
v type /arraytype eq {
/vlen v length def
/cpdvlen cpdv length def
vlen cpdvlen eq {
0 1 vlen 1 sub {
/i exch def
/obj v i get def
/cpdobj cpdv i get def
obj cpdobj ne {
/upd true def
exit
} if
} for
} {
/upd true def
} ifelse
} {
v type /dicttype eq {
v {
/dv exch def
/dk exch def
/cpddv cpdv dk get def
dv cpddv ne {
/upd true def
exit
} if
} forall
} {
/upd true def
} ifelse
} ifelse
} if
} ifelse
upd true eq {
d k v put
} if
} if
} if
} forall
d length 0 gt {
d setpagedevice
} if
} bd
/RE { % /NewFontName [NewEncodingArray] /FontName RE -
  findfont dup length dict begin
  {
    1 index /FID ne
    {def} {pop pop} ifelse
  } forall
  /Encoding exch def
  /FontName 1 index def
  currentdict definefont pop
  end
} bind def
%%EndResource
%%BeginResource: procset (Apache XML Graphics EPS ProcSet) 1.0 0
%%Version: 1.0 0
%%Copyright: (Copyright 2002-2003 The Apache Software Foundation. License terms: http://www.apache.org/licenses/LICENSE-2.0)
/BeginEPSF { %def
/b4_Inc_state save def         % Save state for cleanup
/dict_count countdictstack def % Count objects on dict stack
/op_count count 1 sub def      % Count objects on operand stack
userdict begin                 % Push userdict on dict stack
/showpage { } def              % Redefine showpage, { } = null proc
0 setgray 0 setlinecap         % Prepare graphics state
1 setlinewidth 0 setlinejoin
10 setmiterlimit [ ] 0 setdash newpath
/languagelevel where           % If level not equal to 1 then
{pop languagelevel             % set strokeadjust and
1 ne                           % overprint to their defaults.
{false setstrokeadjust false setoverprint
} if
} if
} bd
/EndEPSF { %def
count op_count sub {pop} repeat            % Clean up stacks
countdictstack dict_count sub {end} repeat
b4_Inc_state restore
} bd
%%EndResource
%FOPBeginFontDict
%%IncludeResource: font Courier-Bold
%%IncludeResource: font Helvetica
%%IncludeResource: font Courier-BoldOblique
%%IncludeResource: font Courier-Oblique
%%IncludeResource: font Times-Roman
%%IncludeResource: font Helvetica-BoldOblique
%%IncludeResource: font Helvetica-Bold
%%IncludeResource: font Helvetica-Oblique
%%IncludeResource: font Times-BoldItalic
%%IncludeResource: font Courier
%%IncludeResource: font Times-Italic
%%IncludeResource: font Times-Bold
%%IncludeResource: font Symbol
%%IncludeResource: font ZapfDingbats
%FOPEndFontDict
%%BeginResource: encoding WinAnsiEncoding
/WinAnsiEncoding [
/.notdef /.notdef /.notdef /.notdef /.notdef
/.notdef /.notdef /.notdef /.notdef /.notdef
/.notdef /.notdef /.notdef /.notdef /.notdef
/.notdef /.notdef /.notdef /.notdef /.notdef
/.notdef /.notdef /.notdef /.notdef /.notdef
/.notdef /.notdef /.notdef /.notdef /.notdef
/.notdef /.notdef /space /exclam /quotedbl
/numbersign /dollar /percent /ampersand /quotesingle
/parenleft /parenright /asterisk /plus /comma
/hyphen /period /slash /zero /one
/two /three /four /five /six
/seven /eight /nine /colon /semicolon
/less /equal /greater /question /at
/A /B /C /D /E
/F /G /H /I /J
/K /L /M /N /O
/P /Q /R /S /T
/U /V /W /X /Y
/Z /bracketleft /backslash /bracketright /asciicircum
/underscore /quoteleft /a /b /c
/d /e /f /g /h
/i /j /k /l /m
/n /o /p /q /r
/s /t /u /v /w
/x /y /z /braceleft /bar
/braceright /asciitilde /bullet /Euro /bullet
/quotesinglbase /florin /quotedblbase /ellipsis /dagger
/daggerdbl /circumflex /perthousand /Scaron /guilsinglleft
/OE /bullet /Zcaron /bullet /bullet
/quoteleft /quoteright /quotedblleft /quotedblright /bullet
/endash /emdash /asciitilde /trademark /scaron
/guilsinglright /oe /bullet /zcaron /Ydieresis
/space /exclamdown /cent /sterling /currency
/yen /brokenbar /section /dieresis /copyright
/ordfeminine /guillemotleft /logicalnot /sfthyphen /registered
/macron /degree /plusminus /twosuperior /threesuperior
/acute /mu /paragraph /middot /cedilla
/onesuperior /ordmasculine /guillemotright /onequarter /onehalf
/threequarters /questiondown /Agrave /Aacute /Acircumflex
/Atilde /Adieresis /Aring /AE /Ccedilla
/Egrave /Eacute /Ecircumflex /Edieresis /Igrave
/Iacute /Icircumflex /Idieresis /Eth /Ntilde
/Ograve /Oacute /Ocircumflex /Otilde /Odieresis
/multiply /Oslash /Ugrave /Uacute /Ucircumflex
/Udieresis /Yacute /Thorn /germandbls /agrave
/aacute /acircumflex /atilde /adieresis /aring
/ae /ccedilla /egrave /eacute /ecircumflex
/edieresis /igrave /iacute /icircumflex /idieresis
/eth /ntilde /ograve /oacute /ocircumflex
/otilde /odieresis /divide /oslash /ugrave
/uacute /ucircumflex /udieresis /yacute /thorn
/ydieresis
] def
%%EndResource
%FOPBeginFontReencode
/Courier-Bold findfont
dup length dict begin
  {1 index /FID ne {def} {pop pop} ifelse} forall
  /Encoding WinAnsiEncoding def
  currentdict
end
/Courier-Bold exch definefont pop
/Helvetica findfont
dup length dict begin
  {1 index /FID ne {def} {pop pop} ifelse} forall
  /Encoding WinAnsiEncoding def
  currentdict
end
/Helvetica exch definefont pop
/Courier-BoldOblique findfont
dup length dict begin
  {1 index /FID ne {def} {pop pop} ifelse} forall
  /Encoding WinAnsiEncoding def
  currentdict
end
/Courier-BoldOblique exch definefont pop
/Courier-Oblique findfont
dup length dict begin
  {1 index /FID ne {def} {pop pop} ifelse} forall
  /Encoding WinAnsiEncoding def
  currentdict
end
/Courier-Oblique exch definefont pop
/Times-Roman findfont
dup length dict begin
  {1 index /FID ne {def} {pop pop} ifelse} forall
  /Encoding WinAnsiEncoding def
  currentdict
end
/Times-Roman exch definefont pop
/Helvetica-BoldOblique findfont
dup length dict begin
  {1 index /FID ne {def} {pop pop} ifelse} forall
  /Encoding WinAnsiEncoding def
  currentdict
end
/Helvetica-BoldOblique exch definefont pop
/Helvetica-Bold findfont
dup length dict begin
  {1 index /FID ne {def} {pop pop} ifelse} forall
  /Encoding WinAnsiEncoding def
  currentdict
end
/Helvetica-Bold exch definefont pop
/Helvetica-Oblique findfont
dup length dict begin
  {1 index /FID ne {def} {pop pop} ifelse} forall
  /Encoding WinAnsiEncoding def
  currentdict
end
/Helvetica-Oblique exch definefont pop
/Times-BoldItalic findfont
dup length dict begin
  {1 index /FID ne {def} {pop pop} ifelse} forall
  /Encoding WinAnsiEncoding def
  currentdict
end
/Times-BoldItalic exch definefont pop
/Courier findfont
dup length dict begin
  {1 index /FID ne {def} {pop pop} ifelse} forall
  /Encoding WinAnsiEncoding def
  currentdict
end
/Courier exch definefont pop
/Times-Italic findfont
dup length dict begin
  {1 index /FID ne {def} {pop pop} ifelse} forall
  /Encoding WinAnsiEncoding def
  currentdict
end
/Times-Italic exch definefont pop
/Times-Bold findfont
dup length dict begin
  {1 index /FID ne {def} {pop pop} ifelse} forall
  /Encoding WinAnsiEncoding def
  currentdict
end
/Times-Bold exch definefont pop
%FOPEndFontReencode
%%EndProlog
%%Page: 1 1
%%PageBoundingBox: 0 0 427 321
%%BeginPageSetup
[1 0 0 -1 0 321] CT
%%EndPageSetup
GS
[0.75789 0 0 0.75789 0 0.41052] CT
1 GC
N
0 0 564 423 re
f
GR
GS
[0.75789 0 0 0.75789 0 0.41052] CT
1 GC
N
0 0 564 423 re
f
GR
GS
[0.75789 0 0 0.75789 0 0.41052] CT
1 GC
N
73 376 M
510 376 L
510 32 L
73 32 L
cp
f
GR
GS
[0.75789 0 0 0.75789 0 0.41052] CT
0.149 GC
2 setlinecap
1 LJ
0.66 LW
N
73 376 M
510 376 L
S
GR
GS
[0.75789 0 0 0.75789 0 0.41052] CT
0.149 GC
2 setlinecap
1 LJ
0.66 LW
N
73 32 M
510 32 L
S
GR
GS
[0.75789 0 0 0.75789 0 0.41052] CT
0.149 GC
2 setlinecap
1 LJ
0.66 LW
N
73 376 M
73 371.63 L
S
GR
GS
[0.75789 0 0 0.75789 0 0.41052] CT
0.149 GC
2 setlinecap
1 LJ
0.66 LW
N
160.4 376 M
160.4 371.63 L
S
GR
GS
[0.75789 0 0 0.75789 0 0.41052] CT
0.149 GC
2 setlinecap
1 LJ
0.66 LW
N
247.8 376 M
247.8 371.63 L
S
GR
GS
[0.75789 0 0 0.75789 0 0.41052] CT
0.149 GC
2 setlinecap
1 LJ
0.66 LW
N
335.2 376 M
335.2 371.63 L
S
GR
GS
[0.75789 0 0 0.75789 0 0.41052] CT
0.149 GC
2 setlinecap
1 LJ
0.66 LW
N
422.6 376 M
422.6 371.63 L
S
GR
GS
[0.75789 0 0 0.75789 0 0.41052] CT
0.149 GC
2 setlinecap
1 LJ
0.66 LW
N
510 376 M
510 371.63 L
S
GR
GS
[0.75789 0 0 0.75789 0 0.41052] CT
0.149 GC
2 setlinecap
1 LJ
0.66 LW
N
73 32 M
73 36.37 L
S
GR
GS
[0.75789 0 0 0.75789 0 0.41052] CT
0.149 GC
2 setlinecap
1 LJ
0.66 LW
N
160.4 32 M
160.4 36.37 L
S
GR
GS
[0.75789 0 0 0.75789 0 0.41052] CT
0.149 GC
2 setlinecap
1 LJ
0.66 LW
N
247.8 32 M
247.8 36.37 L
S
GR
GS
[0.75789 0 0 0.75789 0 0.41052] CT
0.149 GC
2 setlinecap
1 LJ
0.66 LW
N
335.2 32 M
335.2 36.37 L
S
GR
GS
[0.75789 0 0 0.75789 0 0.41052] CT
0.149 GC
2 setlinecap
1 LJ
0.66 LW
N
422.6 32 M
422.6 36.37 L
S
GR
GS
[0.75789 0 0 0.75789 0 0.41052] CT
0.149 GC
2 setlinecap
1 LJ
0.66 LW
N
510 32 M
510 36.37 L
S
GR
GS
[0.75789 0 0 0.75789 55.32632 289.37894] CT
0.149 GC
/Helvetica 13.194 F
GS
[1 0 0 1 0 0] CT
-4.5 13 moveto 
1 -1 scale
(0) t 
GR
GR
GS
[0.75789 0 0 0.75789 121.56631 289.37894] CT
0.149 GC
/Helvetica 13.194 F
GS
[1 0 0 1 0 0] CT
-10.5 13 moveto 
1 -1 scale
(0.5) t 
GR
GR
GS
[0.75789 0 0 0.75789 187.80632 289.37894] CT
0.149 GC
/Helvetica 13.194 F
GS
[1 0 0 1 0 0] CT
-4.5 13 moveto 
1 -1 scale
(1) t 
GR
GR
GS
[0.75789 0 0 0.75789 254.04633 289.37894] CT
0.149 GC
/Helvetica 13.194 F
GS
[1 0 0 1 0 0] CT
-10.5 13 moveto 
1 -1 scale
(1.5) t 
GR
GR
GS
[0.75789 0 0 0.75789 320.28632 289.37894] CT
0.149 GC
/Helvetica 13.194 F
GS
[1 0 0 1 0 0] CT
-4.5 13 moveto 
1 -1 scale
(2) t 
GR
GR
GS
[0.75789 0 0 0.75789 386.52632 289.37894] CT
0.149 GC
/Helvetica 13.194 F
GS
[1 0 0 1 0 0] CT
-10.5 13 moveto 
1 -1 scale
(2.5) t 
GR
GR
GS
[0.75789 0 0 0.75789 0 0.41052] CT
0.149 GC
2 setlinecap
1 LJ
0.66 LW
N
73 376 M
73 32 L
S
GR
GS
[0.75789 0 0 0.75789 0 0.41052] CT
0.149 GC
2 setlinecap
1 LJ
0.66 LW
N
510 376 M
510 32 L
S
GR
GS
[0.75789 0 0 0.75789 0 0.41052] CT
0.149 GC
2 setlinecap
1 LJ
0.66 LW
N
73 376 M
77.37 376 L
S
GR
GS
[0.75789 0 0 0.75789 0 0.41052] CT
0.149 GC
2 setlinecap
1 LJ
0.66 LW
N
73 307.2 M
77.37 307.2 L
S
GR
GS
[0.75789 0 0 0.75789 0 0.41052] CT
0.149 GC
2 setlinecap
1 LJ
0.66 LW
N
73 238.4 M
77.37 238.4 L
S
GR
GS
[0.75789 0 0 0.75789 0 0.41052] CT
0.149 GC
2 setlinecap
1 LJ
0.66 LW
N
73 169.6 M
77.37 169.6 L
S
GR
GS
[0.75789 0 0 0.75789 0 0.41052] CT
0.149 GC
2 setlinecap
1 LJ
0.66 LW
N
73 100.8 M
77.37 100.8 L
S
GR
GS
[0.75789 0 0 0.75789 0 0.41052] CT
0.149 GC
2 setlinecap
1 LJ
0.66 LW
N
73 32 M
77.37 32 L
S
GR
GS
[0.75789 0 0 0.75789 0 0.41052] CT
0.149 GC
2 setlinecap
1 LJ
0.66 LW
N
510 376 M
505.63 376 L
S
GR
GS
[0.75789 0 0 0.75789 0 0.41052] CT
0.149 GC
2 setlinecap
1 LJ
0.66 LW
N
510 307.2 M
505.63 307.2 L
S
GR
GS
[0.75789 0 0 0.75789 0 0.41052] CT
0.149 GC
2 setlinecap
1 LJ
0.66 LW
N
510 238.4 M
505.63 238.4 L
S
GR
GS
[0.75789 0 0 0.75789 0 0.41052] CT
0.149 GC
2 setlinecap
1 LJ
0.66 LW
N
510 169.6 M
505.63 169.6 L
S
GR
GS
[0.75789 0 0 0.75789 0 0.41052] CT
0.149 GC
2 setlinecap
1 LJ
0.66 LW
N
510 100.8 M
505.63 100.8 L
S
GR
GS
[0.75789 0 0 0.75789 0 0.41052] CT
0.149 GC
2 setlinecap
1 LJ
0.66 LW
N
510 32 M
505.63 32 L
S
GR
GS
[0.75789 0 0 0.75789 51.32632 285.37895] CT
0.149 GC
/Helvetica 13.194 F
GS
[1 0 0 1 0 0] CT
-9 4.5 moveto 
1 -1 scale
(0) t 
GR
GR
GS
[0.75789 0 0 0.75789 51.32632 233.2358] CT
0.149 GC
/Helvetica 13.194 F
GS
[1 0 0 1 0 0] CT
-29 4.5 moveto 
1 -1 scale
(0.05) t 
GR
GR
GS
[0.75789 0 0 0.75789 51.32632 181.09263] CT
0.149 GC
/Helvetica 13.194 F
GS
[1 0 0 1 0 0] CT
-21 4.5 moveto 
1 -1 scale
(0.1) t 
GR
GR
GS
[0.75789 0 0 0.75789 51.32632 128.94946] CT
0.149 GC
/Helvetica 13.194 F
GS
[1 0 0 1 0 0] CT
-29 4.5 moveto 
1 -1 scale
(0.15) t 
GR
GR
GS
[0.75789 0 0 0.75789 51.32632 76.80631] CT
0.149 GC
/Helvetica 13.194 F
GS
[1 0 0 1 0 0] CT
-21 4.5 moveto 
1 -1 scale
(0.2) t 
GR
GR
GS
[0.75789 0 0 0.75789 51.32632 24.66315] CT
0.149 GC
/Helvetica 13.194 F
GS
[1 0 0 1 0 0] CT
-29 4.5 moveto 
1 -1 scale
(0.25) t 
GR
GR
GS
[0.75789 0 0 0.75789 0 0.41052] CT
0 0 1 RC
1 LJ
2.639 LW
N
73.363 373.738 M
76.504 372.875 L
80.007 369.968 L
83.494 367.384 L
87.046 364.701 L
90.537 362.287 L
94.051 359.551 L
97.576 356.509 L
101.055 353.628 L
104.552 350.716 L
108.03 347.92 L
111.555 345.15 L
115.034 342.648 L
118.536 340.107 L
122.015 337.534 L
125.512 334.7 L
129.001 331.971 L
132.518 328.991 L
136.002 326.279 L
139.507 323.365 L
143.011 320.552 L
146.49 318.046 L
149.997 314.831 L
153.475 312.303 L
156.991 309.792 L
160.489 306.921 L
163.966 304.051 L
167.476 301.462 L
170.963 298.861 L
174.441 296.015 L
177.93 293.314 L
181.417 290.394 L
184.964 287.803 L
188.46 285.104 L
191.913 282.334 L
195.402 279.7 L
198.897 276.827 L
202.423 273.981 L
205.901 271.208 L
209.41 268.391 L
212.88 265.423 L
216.434 262.58 L
219.908 259.913 L
223.422 257.21 L
226.89 254.441 L
230.366 251.732 L
233.856 249.032 L
237.353 246.348 L
240.835 243.884 L
244.319 241.257 L
247.805 238.745 L
251.301 236.033 L
254.799 233.287 L
258.311 230.389 L
261.777 227.436 L
265.247 224.417 L
268.745 221.673 L
272.239 219.009 L
275.698 216.34 L
279.205 213.632 L
282.69 210.936 L
286.167 208.077 L
289.652 205.355 L
293.141 202.288 L
296.625 199.568 L
300.116 196.802 L
303.635 194.007 L
307.12 191.055 L
310.6 188.199 L
314.088 185.183 L
317.578 182.457 L
321.059 179.557 L
324.544 176.922 L
328.037 174.185 L
331.543 171.77 L
335.051 168.982 L
338.54 166.346 L
342.024 163.528 L
345.513 160.909 L
348.995 158.101 L
352.442 155.431 L
355.91 152.51 L
359.398 149.736 L
362.904 146.891 L
366.4 144.066 L
369.894 141.203 L
373.385 138.114 L
376.916 135.086 L
380.403 132.195 L
383.899 129.565 L
387.373 126.797 L
390.872 123.76 L
394.372 120.872 L
397.834 118.133 L
401.32 115.087 L
404.839 112.338 L
408.336 109.478 L
411.859 106.97 L
415.309 104.002 L
418.796 100.819 L
422.289 98.333 L
425.785 95.928 L
429.295 93.295 L
432.796 90.868 L
436.311 88.003 L
439.807 85.054 L
443.303 82.406 L
446.801 79.834 L
450.294 77.013 L
453.802 74.212 L
S
GR
GS
[0.75789 0 0 0.75789 0 0.41052] CT
[8 8] 0 setdash
2 LJ
2.639 LW
N
73 376 M
76.505 372.996 L
80.016 370.2 L
83.505 367.401 L
87.049 364.834 L
90.558 362.091 L
94.05 359.356 L
97.571 356.409 L
101.046 353.558 L
104.55 350.664 L
108.041 347.872 L
111.553 345.277 L
115.035 342.931 L
118.536 340.283 L
122.002 337.545 L
125.504 334.75 L
128.999 332.02 L
132.514 329.116 L
136.012 326.531 L
139.508 323.568 L
143.01 320.847 L
146.487 318.09 L
150.002 315.126 L
153.472 312.476 L
157.009 309.809 L
160.502 306.934 L
163.974 304.378 L
167.466 301.653 L
170.968 298.874 L
174.449 296.026 L
177.941 293.244 L
181.417 290.478 L
184.958 287.818 L
188.453 285.332 L
191.918 282.464 L
195.415 279.787 L
198.901 276.968 L
202.427 274.242 L
205.908 271.304 L
209.421 268.535 L
212.883 265.81 L
216.429 262.944 L
219.907 260.257 L
223.422 257.543 L
226.882 254.84 L
230.351 252.018 L
233.847 249.449 L
237.349 246.739 L
240.841 244.227 L
244.322 241.61 L
247.809 239.134 L
251.314 236.384 L
254.796 233.492 L
258.28 230.554 L
261.765 227.843 L
265.242 224.743 L
268.743 222.164 L
272.236 219.303 L
275.691 216.751 L
279.194 213.937 L
282.693 211.25 L
286.165 208.435 L
289.656 205.607 L
293.132 202.682 L
296.627 199.957 L
300.118 197.202 L
303.628 194.24 L
307.12 191.401 L
310.598 188.519 L
314.097 185.696 L
317.576 182.966 L
321.063 179.983 L
324.551 177.329 L
328.043 174.615 L
331.535 172.009 L
335.052 169.289 L
338.541 166.558 L
342.032 163.745 L
345.506 161.123 L
348.993 158.416 L
352.436 155.726 L
355.914 152.846 L
359.409 150.069 L
362.904 147.096 L
366.4 144.445 L
369.901 141.634 L
373.392 138.604 L
376.927 135.806 L
380.394 133.135 L
383.898 130.613 L
387.372 127.851 L
390.874 124.951 L
394.359 122.163 L
397.832 119.284 L
401.327 116.407 L
404.829 113.482 L
408.329 110.825 L
411.846 108.295 L
415.308 105.403 L
418.804 102.661 L
422.31 100.21 L
425.807 97.589 L
429.315 94.719 L
432.819 91.953 L
436.324 89.077 L
439.818 86.187 L
443.305 83.61 L
446.812 80.744 L
450.3 77.973 L
453.801 75.166 L
S
GR
GS
[0.75789 0 0 0.75789 0 0.41052] CT
1 GC
N
344 80 M
344 45 L
497 45 L
497 80 L
cp
f
GR
GS
[0.75789 0 0 0.75789 288.7579 41.82013] CT
/Helvetica 11.875 F
GS
[1 0 0 1 0 0] CT
0 4.5 moveto 
1 -1 scale
(estimated position) t 
GR
GR
GS
[0.75789 0 0 0.75789 0 0.41052] CT
0 0 1 RC
1 LJ
2.639 LW
N
348 54.638 M
378 54.638 L
S
GR
GS
[0.75789 0 0 0.75789 288.7579 53.73776] CT
/Helvetica 11.875 F
GS
[1 0 0 1 0 0] CT
0 4.5 moveto 
1 -1 scale
(real position) t 
GR
GR
GS
[0.75789 0 0 0.75789 0 0.41052] CT
[8 8] 0 setdash
2 LJ
2.639 LW
N
348 70.362 M
378 70.362 L
S
GR
GS
[0.75789 0 0 0.75789 0 0.41052] CT
0.149 GC
10.0 ML
0.66 LW
N
344 80 M
344 45 L
497 45 L
497 80 L
cp
S
GR
%%Trailer
%%Pages: 1
%%EOF
