%!PS-Adobe-3.0 EPSF-3.0
%%Creator: (MATLAB, The Mathworks, Inc. Version 8.5.0.197613 \(R2015a\). Operating System: Windows 8)
%%Title: D:/Dropbox/ITA/mprof/itandroids-humanoide-master-source-tools-localization_simulator/source/tools/codigo-mprof-bitbucket/figures/field.eps
%%CreationDate: 2020-04-29T14:55:57
%%Pages: (atend)
%%BoundingBox: 0 0 433 411
%%LanguageLevel: 2
%%EndComments
%%BeginProlog
%%BeginResource: procset (Apache XML Graphics Std ProcSet) 1.2 0
%%Version: 1.2 0
%%Copyright: (Copyright 2001-2003,2010 The Apache Software Foundation. License terms: http://www.apache.org/licenses/LICENSE-2.0)
/bd{bind def}bind def
/ld{load def}bd
/GR/grestore ld
/M/moveto ld
/LJ/setlinejoin ld
/C/curveto ld
/f/fill ld
/LW/setlinewidth ld
/GC/setgray ld
/t/show ld
/N/newpath ld
/CT/concat ld
/cp/closepath ld
/S/stroke ld
/L/lineto ld
/CC/setcmykcolor ld
/A/ashow ld
/GS/gsave ld
/RC/setrgbcolor ld
/RM/rmoveto ld
/ML/setmiterlimit ld
/re {4 2 roll M
1 index 0 rlineto
0 exch rlineto
neg 0 rlineto
cp } bd
/_ctm matrix def
/_tm matrix def
/BT { _ctm currentmatrix pop matrix _tm copy pop 0 0 moveto } bd
/ET { _ctm setmatrix } bd
/iTm { _ctm setmatrix _tm concat } bd
/Tm { _tm astore pop iTm 0 0 moveto } bd
/ux 0.0 def
/uy 0.0 def
/F {
  /Tp exch def
  /Tf exch def
  Tf findfont Tp scalefont setfont
  /cf Tf def  /cs Tp def
} bd
/ULS {currentpoint /uy exch def /ux exch def} bd
/ULE {
  /Tcx currentpoint pop def
  gsave
  newpath
  cf findfont cs scalefont dup
  /FontMatrix get 0 get /Ts exch def /FontInfo get dup
  /UnderlinePosition get Ts mul /To exch def
  /UnderlineThickness get Ts mul /Tt exch def
  ux uy To add moveto  Tcx uy To add lineto
  Tt setlinewidth stroke
  grestore
} bd
/OLE {
  /Tcx currentpoint pop def
  gsave
  newpath
  cf findfont cs scalefont dup
  /FontMatrix get 0 get /Ts exch def /FontInfo get dup
  /UnderlinePosition get Ts mul /To exch def
  /UnderlineThickness get Ts mul /Tt exch def
  ux uy To add cs add moveto Tcx uy To add cs add lineto
  Tt setlinewidth stroke
  grestore
} bd
/SOE {
  /Tcx currentpoint pop def
  gsave
  newpath
  cf findfont cs scalefont dup
  /FontMatrix get 0 get /Ts exch def /FontInfo get dup
  /UnderlinePosition get Ts mul /To exch def
  /UnderlineThickness get Ts mul /Tt exch def
  ux uy To add cs 10 mul 26 idiv add moveto Tcx uy To add cs 10 mul 26 idiv add lineto
  Tt setlinewidth stroke
  grestore
} bd
/QT {
/Y22 exch store
/X22 exch store
/Y21 exch store
/X21 exch store
currentpoint
/Y21 load 2 mul add 3 div exch
/X21 load 2 mul add 3 div exch
/X21 load 2 mul /X22 load add 3 div
/Y21 load 2 mul /Y22 load add 3 div
/X22 load /Y22 load curveto
} bd
/SSPD {
dup length /d exch dict def
{
/v exch def
/k exch def
currentpagedevice k known {
/cpdv currentpagedevice k get def
v cpdv ne {
/upd false def
/nullv v type /nulltype eq def
/nullcpdv cpdv type /nulltype eq def
nullv nullcpdv or
{
/upd true def
} {
/sametype v type cpdv type eq def
sametype {
v type /arraytype eq {
/vlen v length def
/cpdvlen cpdv length def
vlen cpdvlen eq {
0 1 vlen 1 sub {
/i exch def
/obj v i get def
/cpdobj cpdv i get def
obj cpdobj ne {
/upd true def
exit
} if
} for
} {
/upd true def
} ifelse
} {
v type /dicttype eq {
v {
/dv exch def
/dk exch def
/cpddv cpdv dk get def
dv cpddv ne {
/upd true def
exit
} if
} forall
} {
/upd true def
} ifelse
} ifelse
} if
} ifelse
upd true eq {
d k v put
} if
} if
} if
} forall
d length 0 gt {
d setpagedevice
} if
} bd
%%EndResource
%%BeginResource: procset (Apache XML Graphics EPS ProcSet) 1.0 0
%%Version: 1.0 0
%%Copyright: (Copyright 2002-2003 The Apache Software Foundation. License terms: http://www.apache.org/licenses/LICENSE-2.0)
/BeginEPSF { %def
/b4_Inc_state save def         % Save state for cleanup
/dict_count countdictstack def % Count objects on dict stack
/op_count count 1 sub def      % Count objects on operand stack
userdict begin                 % Push userdict on dict stack
/showpage { } def              % Redefine showpage, { } = null proc
0 setgray 0 setlinecap         % Prepare graphics state
1 setlinewidth 0 setlinejoin
10 setmiterlimit [ ] 0 setdash newpath
/languagelevel where           % If level not equal to 1 then
{pop languagelevel             % set strokeadjust and
1 ne                           % overprint to their defaults.
{false setstrokeadjust false setoverprint
} if
} if
} bd
/EndEPSF { %def
count op_count sub {pop} repeat            % Clean up stacks
countdictstack dict_count sub {end} repeat
b4_Inc_state restore
} bd
%%EndResource
%FOPBeginFontDict
%%IncludeResource: font Courier-Bold
%%IncludeResource: font Helvetica
%%IncludeResource: font Courier-BoldOblique
%%IncludeResource: font Courier-Oblique
%%IncludeResource: font Times-Roman
%%IncludeResource: font Helvetica-BoldOblique
%%IncludeResource: font Helvetica-Bold
%%IncludeResource: font Helvetica-Oblique
%%IncludeResource: font Times-BoldItalic
%%IncludeResource: font Courier
%%IncludeResource: font Times-Italic
%%IncludeResource: font Times-Bold
%%IncludeResource: font Symbol
%%IncludeResource: font ZapfDingbats
%FOPEndFontDict
%%BeginResource: encoding WinAnsiEncoding
/WinAnsiEncoding [
/.notdef /.notdef /.notdef /.notdef /.notdef
/.notdef /.notdef /.notdef /.notdef /.notdef
/.notdef /.notdef /.notdef /.notdef /.notdef
/.notdef /.notdef /.notdef /.notdef /.notdef
/.notdef /.notdef /.notdef /.notdef /.notdef
/.notdef /.notdef /.notdef /.notdef /.notdef
/.notdef /.notdef /space /exclam /quotedbl
/numbersign /dollar /percent /ampersand /quotesingle
/parenleft /parenright /asterisk /plus /comma
/hyphen /period /slash /zero /one
/two /three /four /five /six
/seven /eight /nine /colon /semicolon
/less /equal /greater /question /at
/A /B /C /D /E
/F /G /H /I /J
/K /L /M /N /O
/P /Q /R /S /T
/U /V /W /X /Y
/Z /bracketleft /backslash /bracketright /asciicircum
/underscore /quoteleft /a /b /c
/d /e /f /g /h
/i /j /k /l /m
/n /o /p /q /r
/s /t /u /v /w
/x /y /z /braceleft /bar
/braceright /asciitilde /bullet /Euro /bullet
/quotesinglbase /florin /quotedblbase /ellipsis /dagger
/daggerdbl /circumflex /perthousand /Scaron /guilsinglleft
/OE /bullet /Zcaron /bullet /bullet
/quoteleft /quoteright /quotedblleft /quotedblright /bullet
/endash /emdash /asciitilde /trademark /scaron
/guilsinglright /oe /bullet /zcaron /Ydieresis
/space /exclamdown /cent /sterling /currency
/yen /brokenbar /section /dieresis /copyright
/ordfeminine /guillemotleft /logicalnot /sfthyphen /registered
/macron /degree /plusminus /twosuperior /threesuperior
/acute /mu /paragraph /middot /cedilla
/onesuperior /ordmasculine /guillemotright /onequarter /onehalf
/threequarters /questiondown /Agrave /Aacute /Acircumflex
/Atilde /Adieresis /Aring /AE /Ccedilla
/Egrave /Eacute /Ecircumflex /Edieresis /Igrave
/Iacute /Icircumflex /Idieresis /Eth /Ntilde
/Ograve /Oacute /Ocircumflex /Otilde /Odieresis
/multiply /Oslash /Ugrave /Uacute /Ucircumflex
/Udieresis /Yacute /Thorn /germandbls /agrave
/aacute /acircumflex /atilde /adieresis /aring
/ae /ccedilla /egrave /eacute /ecircumflex
/edieresis /igrave /iacute /icircumflex /idieresis
/eth /ntilde /ograve /oacute /ocircumflex
/otilde /odieresis /divide /oslash /ugrave
/uacute /ucircumflex /udieresis /yacute /thorn
/ydieresis
] def
%%EndResource
%FOPBeginFontReencode
/Courier-Bold findfont
dup length dict begin
  {1 index /FID ne {def} {pop pop} ifelse} forall
  /Encoding WinAnsiEncoding def
  currentdict
end
/Courier-Bold exch definefont pop
/Helvetica findfont
dup length dict begin
  {1 index /FID ne {def} {pop pop} ifelse} forall
  /Encoding WinAnsiEncoding def
  currentdict
end
/Helvetica exch definefont pop
/Courier-BoldOblique findfont
dup length dict begin
  {1 index /FID ne {def} {pop pop} ifelse} forall
  /Encoding WinAnsiEncoding def
  currentdict
end
/Courier-BoldOblique exch definefont pop
/Courier-Oblique findfont
dup length dict begin
  {1 index /FID ne {def} {pop pop} ifelse} forall
  /Encoding WinAnsiEncoding def
  currentdict
end
/Courier-Oblique exch definefont pop
/Times-Roman findfont
dup length dict begin
  {1 index /FID ne {def} {pop pop} ifelse} forall
  /Encoding WinAnsiEncoding def
  currentdict
end
/Times-Roman exch definefont pop
/Helvetica-BoldOblique findfont
dup length dict begin
  {1 index /FID ne {def} {pop pop} ifelse} forall
  /Encoding WinAnsiEncoding def
  currentdict
end
/Helvetica-BoldOblique exch definefont pop
/Helvetica-Bold findfont
dup length dict begin
  {1 index /FID ne {def} {pop pop} ifelse} forall
  /Encoding WinAnsiEncoding def
  currentdict
end
/Helvetica-Bold exch definefont pop
/Helvetica-Oblique findfont
dup length dict begin
  {1 index /FID ne {def} {pop pop} ifelse} forall
  /Encoding WinAnsiEncoding def
  currentdict
end
/Helvetica-Oblique exch definefont pop
/Times-BoldItalic findfont
dup length dict begin
  {1 index /FID ne {def} {pop pop} ifelse} forall
  /Encoding WinAnsiEncoding def
  currentdict
end
/Times-BoldItalic exch definefont pop
/Courier findfont
dup length dict begin
  {1 index /FID ne {def} {pop pop} ifelse} forall
  /Encoding WinAnsiEncoding def
  currentdict
end
/Courier exch definefont pop
/Times-Italic findfont
dup length dict begin
  {1 index /FID ne {def} {pop pop} ifelse} forall
  /Encoding WinAnsiEncoding def
  currentdict
end
/Times-Italic exch definefont pop
/Times-Bold findfont
dup length dict begin
  {1 index /FID ne {def} {pop pop} ifelse} forall
  /Encoding WinAnsiEncoding def
  currentdict
end
/Times-Bold exch definefont pop
%FOPEndFontReencode
%%EndProlog
%%Page: 1 1
%%PageBoundingBox: 0 0 433 411
%%BeginPageSetup
[1 0 0 -1 0 411] CT
%%EndPageSetup
GS
[0.75 0 0 0.75 0 0] CT
1 GC
N
0 0 577 548 re
f
GR
GS
[0.75 0 0 0.75 0 0] CT
1 GC
N
0 0 577 548 re
f
GR
GS
[0.75 0 0 0.75 0 0] CT
1 GC
N
75 488 M
522 488 L
522 41 L
75 41 L
cp
f
GR
GS
[0.75 0 0 0.75 0 0] CT
0.149 GC
2 setlinecap
10.0 ML
N
75 488 M
522 488 L
S
GR
GS
[0.75 0 0 0.75 0 0] CT
0.149 GC
2 setlinecap
10.0 ML
N
75 41 M
522 41 L
S
GR
GS
[0.75 0 0 0.75 0 0] CT
0.149 GC
2 setlinecap
10.0 ML
N
75 488 M
75 483.53 L
S
GR
GS
[0.75 0 0 0.75 0 0] CT
0.149 GC
2 setlinecap
10.0 ML
N
119.7 488 M
119.7 483.53 L
S
GR
GS
[0.75 0 0 0.75 0 0] CT
0.149 GC
2 setlinecap
10.0 ML
N
164.4 488 M
164.4 483.53 L
S
GR
GS
[0.75 0 0 0.75 0 0] CT
0.149 GC
2 setlinecap
10.0 ML
N
209.1 488 M
209.1 483.53 L
S
GR
GS
[0.75 0 0 0.75 0 0] CT
0.149 GC
2 setlinecap
10.0 ML
N
253.8 488 M
253.8 483.53 L
S
GR
GS
[0.75 0 0 0.75 0 0] CT
0.149 GC
2 setlinecap
10.0 ML
N
298.5 488 M
298.5 483.53 L
S
GR
GS
[0.75 0 0 0.75 0 0] CT
0.149 GC
2 setlinecap
10.0 ML
N
343.2 488 M
343.2 483.53 L
S
GR
GS
[0.75 0 0 0.75 0 0] CT
0.149 GC
2 setlinecap
10.0 ML
N
387.9 488 M
387.9 483.53 L
S
GR
GS
[0.75 0 0 0.75 0 0] CT
0.149 GC
2 setlinecap
10.0 ML
N
432.6 488 M
432.6 483.53 L
S
GR
GS
[0.75 0 0 0.75 0 0] CT
0.149 GC
2 setlinecap
10.0 ML
N
477.3 488 M
477.3 483.53 L
S
GR
GS
[0.75 0 0 0.75 0 0] CT
0.149 GC
2 setlinecap
10.0 ML
N
522 488 M
522 483.53 L
S
GR
GS
[0.75 0 0 0.75 0 0] CT
0.149 GC
2 setlinecap
10.0 ML
N
75 41 M
75 45.47 L
S
GR
GS
[0.75 0 0 0.75 0 0] CT
0.149 GC
2 setlinecap
10.0 ML
N
119.7 41 M
119.7 45.47 L
S
GR
GS
[0.75 0 0 0.75 0 0] CT
0.149 GC
2 setlinecap
10.0 ML
N
164.4 41 M
164.4 45.47 L
S
GR
GS
[0.75 0 0 0.75 0 0] CT
0.149 GC
2 setlinecap
10.0 ML
N
209.1 41 M
209.1 45.47 L
S
GR
GS
[0.75 0 0 0.75 0 0] CT
0.149 GC
2 setlinecap
10.0 ML
N
253.8 41 M
253.8 45.47 L
S
GR
GS
[0.75 0 0 0.75 0 0] CT
0.149 GC
2 setlinecap
10.0 ML
N
298.5 41 M
298.5 45.47 L
S
GR
GS
[0.75 0 0 0.75 0 0] CT
0.149 GC
2 setlinecap
10.0 ML
N
343.2 41 M
343.2 45.47 L
S
GR
GS
[0.75 0 0 0.75 0 0] CT
0.149 GC
2 setlinecap
10.0 ML
N
387.9 41 M
387.9 45.47 L
S
GR
GS
[0.75 0 0 0.75 0 0] CT
0.149 GC
2 setlinecap
10.0 ML
N
432.6 41 M
432.6 45.47 L
S
GR
GS
[0.75 0 0 0.75 0 0] CT
0.149 GC
2 setlinecap
10.0 ML
N
477.3 41 M
477.3 45.47 L
S
GR
GS
[0.75 0 0 0.75 0 0] CT
0.149 GC
2 setlinecap
10.0 ML
N
522 41 M
522 45.47 L
S
GR
GS
[0.75 0 0 0.75 56.25 369.99998] CT
0.149 GC
/Helvetica 13 F
GS
[1 0 0 1 0 0] CT
-6 14 moveto 
1 -1 scale
(-5) t 
GR
GR
GS
[0.75 0 0 0.75 89.775 369.99998] CT
0.149 GC
/Helvetica 13 F
GS
[1 0 0 1 0 0] CT
-6 14 moveto 
1 -1 scale
(-4) t 
GR
GR
GS
[0.75 0 0 0.75 123.3 369.99998] CT
0.149 GC
/Helvetica 13 F
GS
[1 0 0 1 0 0] CT
-6 14 moveto 
1 -1 scale
(-3) t 
GR
GR
GS
[0.75 0 0 0.75 156.825 369.99998] CT
0.149 GC
/Helvetica 13 F
GS
[1 0 0 1 0 0] CT
-6 14 moveto 
1 -1 scale
(-2) t 
GR
GR
GS
[0.75 0 0 0.75 190.35 369.99998] CT
0.149 GC
/Helvetica 13 F
GS
[1 0 0 1 0 0] CT
-6 14 moveto 
1 -1 scale
(-1) t 
GR
GR
GS
[0.75 0 0 0.75 223.875 369.99998] CT
0.149 GC
/Helvetica 13 F
GS
[1 0 0 1 0 0] CT
-4 14 moveto 
1 -1 scale
(0) t 
GR
GR
GS
[0.75 0 0 0.75 257.40001 369.99998] CT
0.149 GC
/Helvetica 13 F
GS
[1 0 0 1 0 0] CT
-4 14 moveto 
1 -1 scale
(1) t 
GR
GR
GS
[0.75 0 0 0.75 290.925 369.99998] CT
0.149 GC
/Helvetica 13 F
GS
[1 0 0 1 0 0] CT
-4 14 moveto 
1 -1 scale
(2) t 
GR
GR
GS
[0.75 0 0 0.75 324.45 369.99998] CT
0.149 GC
/Helvetica 13 F
GS
[1 0 0 1 0 0] CT
-4 14 moveto 
1 -1 scale
(3) t 
GR
GR
GS
[0.75 0 0 0.75 357.97499 369.99998] CT
0.149 GC
/Helvetica 13 F
GS
[1 0 0 1 0 0] CT
-4 14 moveto 
1 -1 scale
(4) t 
GR
GR
GS
[0.75 0 0 0.75 391.5 369.99998] CT
0.149 GC
/Helvetica 13 F
GS
[1 0 0 1 0 0] CT
-4 14 moveto 
1 -1 scale
(5) t 
GR
GR
GS
[0.75 0 0 0.75 0 0] CT
0.149 GC
2 setlinecap
10.0 ML
N
75 488 M
75 41 L
S
GR
GS
[0.75 0 0 0.75 0 0] CT
0.149 GC
2 setlinecap
10.0 ML
N
522 488 M
522 41 L
S
GR
GS
[0.75 0 0 0.75 0 0] CT
0.149 GC
2 setlinecap
10.0 ML
N
75 488 M
79.47 488 L
S
GR
GS
[0.75 0 0 0.75 0 0] CT
0.149 GC
2 setlinecap
10.0 ML
N
75 443.3 M
79.47 443.3 L
S
GR
GS
[0.75 0 0 0.75 0 0] CT
0.149 GC
2 setlinecap
10.0 ML
N
75 398.6 M
79.47 398.6 L
S
GR
GS
[0.75 0 0 0.75 0 0] CT
0.149 GC
2 setlinecap
10.0 ML
N
75 353.9 M
79.47 353.9 L
S
GR
GS
[0.75 0 0 0.75 0 0] CT
0.149 GC
2 setlinecap
10.0 ML
N
75 309.2 M
79.47 309.2 L
S
GR
GS
[0.75 0 0 0.75 0 0] CT
0.149 GC
2 setlinecap
10.0 ML
N
75 264.5 M
79.47 264.5 L
S
GR
GS
[0.75 0 0 0.75 0 0] CT
0.149 GC
2 setlinecap
10.0 ML
N
75 219.8 M
79.47 219.8 L
S
GR
GS
[0.75 0 0 0.75 0 0] CT
0.149 GC
2 setlinecap
10.0 ML
N
75 175.1 M
79.47 175.1 L
S
GR
GS
[0.75 0 0 0.75 0 0] CT
0.149 GC
2 setlinecap
10.0 ML
N
75 130.4 M
79.47 130.4 L
S
GR
GS
[0.75 0 0 0.75 0 0] CT
0.149 GC
2 setlinecap
10.0 ML
N
75 85.7 M
79.47 85.7 L
S
GR
GS
[0.75 0 0 0.75 0 0] CT
0.149 GC
2 setlinecap
10.0 ML
N
75 41 M
79.47 41 L
S
GR
GS
[0.75 0 0 0.75 0 0] CT
0.149 GC
2 setlinecap
10.0 ML
N
522 488 M
517.53 488 L
S
GR
GS
[0.75 0 0 0.75 0 0] CT
0.149 GC
2 setlinecap
10.0 ML
N
522 443.3 M
517.53 443.3 L
S
GR
GS
[0.75 0 0 0.75 0 0] CT
0.149 GC
2 setlinecap
10.0 ML
N
522 398.6 M
517.53 398.6 L
S
GR
GS
[0.75 0 0 0.75 0 0] CT
0.149 GC
2 setlinecap
10.0 ML
N
522 353.9 M
517.53 353.9 L
S
GR
GS
[0.75 0 0 0.75 0 0] CT
0.149 GC
2 setlinecap
10.0 ML
N
522 309.2 M
517.53 309.2 L
S
GR
GS
[0.75 0 0 0.75 0 0] CT
0.149 GC
2 setlinecap
10.0 ML
N
522 264.5 M
517.53 264.5 L
S
GR
GS
[0.75 0 0 0.75 0 0] CT
0.149 GC
2 setlinecap
10.0 ML
N
522 219.8 M
517.53 219.8 L
S
GR
GS
[0.75 0 0 0.75 0 0] CT
0.149 GC
2 setlinecap
10.0 ML
N
522 175.1 M
517.53 175.1 L
S
GR
GS
[0.75 0 0 0.75 0 0] CT
0.149 GC
2 setlinecap
10.0 ML
N
522 130.4 M
517.53 130.4 L
S
GR
GS
[0.75 0 0 0.75 0 0] CT
0.149 GC
2 setlinecap
10.0 ML
N
522 85.7 M
517.53 85.7 L
S
GR
GS
[0.75 0 0 0.75 0 0] CT
0.149 GC
2 setlinecap
10.0 ML
N
522 41 M
517.53 41 L
S
GR
GS
[0.75 0 0 0.75 52.25001 366] CT
0.149 GC
/Helvetica 13 F
GS
[1 0 0 1 0 0] CT
-12 5.5 moveto 
1 -1 scale
(-5) t 
GR
GR
GS
[0.75 0 0 0.75 52.25001 332.47499] CT
0.149 GC
/Helvetica 13 F
GS
[1 0 0 1 0 0] CT
-12 5.5 moveto 
1 -1 scale
(-4) t 
GR
GR
GS
[0.75 0 0 0.75 52.25001 298.95] CT
0.149 GC
/Helvetica 13 F
GS
[1 0 0 1 0 0] CT
-12 5.5 moveto 
1 -1 scale
(-3) t 
GR
GR
GS
[0.75 0 0 0.75 52.25001 265.425] CT
0.149 GC
/Helvetica 13 F
GS
[1 0 0 1 0 0] CT
-12 5.5 moveto 
1 -1 scale
(-2) t 
GR
GR
GS
[0.75 0 0 0.75 52.25001 231.90001] CT
0.149 GC
/Helvetica 13 F
GS
[1 0 0 1 0 0] CT
-12 5.5 moveto 
1 -1 scale
(-1) t 
GR
GR
GS
[0.75 0 0 0.75 52.25001 198.375] CT
0.149 GC
/Helvetica 13 F
GS
[1 0 0 1 0 0] CT
-8 5.5 moveto 
1 -1 scale
(0) t 
GR
GR
GS
[0.75 0 0 0.75 52.25001 164.85] CT
0.149 GC
/Helvetica 13 F
GS
[1 0 0 1 0 0] CT
-8 5.5 moveto 
1 -1 scale
(1) t 
GR
GR
GS
[0.75 0 0 0.75 52.25001 131.325] CT
0.149 GC
/Helvetica 13 F
GS
[1 0 0 1 0 0] CT
-8 5.5 moveto 
1 -1 scale
(2) t 
GR
GR
GS
[0.75 0 0 0.75 52.25001 97.8] CT
0.149 GC
/Helvetica 13 F
GS
[1 0 0 1 0 0] CT
-8 5.5 moveto 
1 -1 scale
(3) t 
GR
GR
GS
[0.75 0 0 0.75 52.25001 64.275] CT
0.149 GC
/Helvetica 13 F
GS
[1 0 0 1 0 0] CT
-8 5.5 moveto 
1 -1 scale
(4) t 
GR
GR
GS
[0.75 0 0 0.75 52.25001 30.75] CT
0.149 GC
/Helvetica 13 F
GS
[1 0 0 1 0 0] CT
-8 5.5 moveto 
1 -1 scale
(5) t 
GR
GR
GS
[0.75 0 0 0.75 0 0] CT
0 0 1 RC
2 setlinecap
10.0 ML
1.333 LW
N
97.35 130.4 M
499.65 130.4 L
S
GR
GS
[0.75 0 0 0.75 0 0] CT
0 0 1 RC
2 setlinecap
10.0 ML
1.333 LW
N
97.35 398.6 M
499.65 398.6 L
S
GR
GS
[0.75 0 0 0.75 0 0] CT
0 0 1 RC
2 setlinecap
10.0 ML
1.333 LW
N
97.35 398.6 M
97.35 130.4 L
S
GR
GS
[0.75 0 0 0.75 0 0] CT
0 0 1 RC
2 setlinecap
10.0 ML
1.333 LW
N
499.65 398.6 M
499.65 130.4 L
S
GR
GS
[0.75 0 0 0.75 0 0] CT
0 0 1 RC
2 setlinecap
10.0 ML
1.333 LW
N
298.5 398.6 M
298.5 130.4 L
S
GR
GS
[0.75 0 0 0.75 0 0] CT
0 0 1 RC
2 setlinecap
10.0 ML
1.333 LW
N
97.35 341.608 M
124.17 341.608 L
S
GR
GS
[0.75 0 0 0.75 0 0] CT
0 0 1 RC
2 setlinecap
10.0 ML
1.333 LW
N
97.35 187.393 M
124.17 187.393 L
S
GR
GS
[0.75 0 0 0.75 0 0] CT
0 0 1 RC
2 setlinecap
10.0 ML
1.333 LW
N
124.17 187.393 M
124.17 341.608 L
S
GR
GS
[0.75 0 0 0.75 0 0] CT
0 0 1 RC
2 setlinecap
10.0 ML
1.333 LW
N
499.65 341.608 M
472.83 341.608 L
S
GR
GS
[0.75 0 0 0.75 0 0] CT
0 0 1 RC
2 setlinecap
10.0 ML
1.333 LW
N
499.65 187.393 M
472.83 187.393 L
S
GR
GS
[0.75 0 0 0.75 0 0] CT
0 0 1 RC
2 setlinecap
10.0 ML
1.333 LW
N
472.83 187.393 M
472.83 341.608 L
S
GR
GS
[0.75 0 0 0.75 0 0] CT
0 1 0 RC
N
107.278 130.5 M
106.309 126.258 L
103.596 122.855 L
99.676 120.967 L
95.324 120.967 L
91.404 122.855 L
88.691 126.258 L
87.722 130.5 L
88.691 134.742 L
91.404 138.145 L
95.324 140.033 L
99.676 140.033 L
103.596 138.145 L
106.309 134.742 L
107.278 130.5 L
cp
f
GR
GS
[0.75 0 0 0.75 0 0] CT
0 1 0 RC
N
107.278 398.5 M
106.309 394.258 L
103.596 390.855 L
99.676 388.967 L
95.324 388.967 L
91.404 390.855 L
88.691 394.258 L
87.722 398.5 L
88.691 402.742 L
91.404 406.145 L
95.324 408.033 L
99.676 408.033 L
103.596 406.145 L
106.309 402.742 L
107.278 398.5 L
cp
f
GR
GS
[0.75 0 0 0.75 0 0] CT
0 1 0 RC
N
509.278 130.5 M
508.309 126.258 L
505.596 122.855 L
501.676 120.967 L
497.324 120.967 L
493.404 122.855 L
490.691 126.258 L
489.722 130.5 L
490.691 134.742 L
493.404 138.145 L
497.324 140.033 L
501.676 140.033 L
505.596 138.145 L
508.309 134.742 L
509.278 130.5 L
cp
f
GR
GS
[0.75 0 0 0.75 0 0] CT
0 1 0 RC
N
509.278 398.5 M
508.309 394.258 L
505.596 390.855 L
501.676 388.967 L
497.324 388.967 L
493.404 390.855 L
490.691 394.258 L
489.722 398.5 L
490.691 402.742 L
493.404 406.145 L
497.324 408.033 L
501.676 408.033 L
505.596 406.145 L
508.309 402.742 L
509.278 398.5 L
cp
f
GR
GS
[0.75 0 0 0.75 223.875 298.95] CT
1 1 0 RC
N
2.222 0 M
2.222 1.227 1.227 2.222 0 2.222 C
-1.227 2.222 -2.222 1.227 -2.222 0 C
-2.222 -1.227 -1.227 -2.222 0 -2.222 C
1.227 -2.222 2.222 -1.227 2.222 0 C
cp
f
GR
GS
[0.75 0 0 0.75 223.875 97.8] CT
1 1 0 RC
N
2.222 0 M
2.222 1.227 1.227 2.222 0 2.222 C
-1.227 2.222 -2.222 1.227 -2.222 0 C
-2.222 -1.227 -1.227 -2.222 0 -2.222 C
1.227 -2.222 2.222 -1.227 2.222 0 C
cp
f
GR
GS
[0.75 0 0 0.75 223.875 198.375] CT
0 1 1 RC
N
2.222 0 M
2.222 1.227 1.227 2.222 0 2.222 C
-1.227 2.222 -2.222 1.227 -2.222 0 C
-2.222 -1.227 -1.227 -2.222 0 -2.222 C
1.227 -2.222 2.222 -1.227 2.222 0 C
cp
f
GR
GS
[0.75 0 0 0.75 0 0] CT
1 0 0 RC
N
107.278 224.5 M
106.309 220.258 L
103.596 216.855 L
99.676 214.967 L
95.324 214.967 L
91.404 216.855 L
88.691 220.258 L
87.722 224.5 L
88.691 228.742 L
91.404 232.145 L
95.324 234.033 L
99.676 234.033 L
103.596 232.145 L
106.309 228.742 L
107.278 224.5 L
cp
f
GR
GS
[0.75 0 0 0.75 0 0] CT
1 0 0 RC
N
107.278 304.5 M
106.309 300.258 L
103.596 296.855 L
99.676 294.967 L
95.324 294.967 L
91.404 296.855 L
88.691 300.258 L
87.722 304.5 L
88.691 308.742 L
91.404 312.145 L
95.324 314.033 L
99.676 314.033 L
103.596 312.145 L
106.309 308.742 L
107.278 304.5 L
cp
f
GR
GS
[0.75 0 0 0.75 0 0] CT
1 0 0 RC
N
509.278 224.5 M
508.309 220.258 L
505.596 216.855 L
501.676 214.967 L
497.324 214.967 L
493.404 216.855 L
490.691 220.258 L
489.722 224.5 L
490.691 228.742 L
493.404 232.145 L
497.324 234.033 L
501.676 234.033 L
505.596 232.145 L
508.309 228.742 L
509.278 224.5 L
cp
f
GR
GS
[0.75 0 0 0.75 0 0] CT
1 0 0 RC
N
509.278 304.5 M
508.309 300.258 L
505.596 296.855 L
501.676 294.967 L
497.324 294.967 L
493.404 296.855 L
490.691 300.258 L
489.722 304.5 L
490.691 308.742 L
493.404 312.145 L
497.324 314.033 L
501.676 314.033 L
505.596 312.145 L
508.309 308.742 L
509.278 304.5 L
cp
f
GR
GS
[0.75 0 0 0.75 133.3575 198.375] CT
1 0 1 RC
N
2.222 0 M
2.222 1.227 1.227 2.222 0 2.222 C
-1.227 2.222 -2.222 1.227 -2.222 0 C
-2.222 -1.227 -1.227 -2.222 0 -2.222 C
1.227 -2.222 2.222 -1.227 2.222 0 C
cp
f
GR
GS
[0.75 0 0 0.75 314.3925 198.375] CT
1 0 1 RC
N
2.222 0 M
2.222 1.227 1.227 2.222 0 2.222 C
-1.227 2.222 -2.222 1.227 -2.222 0 C
-2.222 -1.227 -1.227 -2.222 0 -2.222 C
1.227 -2.222 2.222 -1.227 2.222 0 C
cp
f
GR
GS
[0.75 0 0 0.75 354.62251 140.54438] CT
N
2.222 0 M
2.222 1.227 1.227 2.222 0 2.222 C
-1.227 2.222 -2.222 1.227 -2.222 0 C
-2.222 -1.227 -1.227 -2.222 0 -2.222 C
1.227 -2.222 2.222 -1.227 2.222 0 C
cp
f
GR
GS
[0.75 0 0 0.75 354.62251 256.20564] CT
N
2.222 0 M
2.222 1.227 1.227 2.222 0 2.222 C
-1.227 2.222 -2.222 1.227 -2.222 0 C
-2.222 -1.227 -1.227 -2.222 0 -2.222 C
1.227 -2.222 2.222 -1.227 2.222 0 C
cp
f
GR
GS
[0.75 0 0 0.75 93.1275 140.54438] CT
N
2.222 0 M
2.222 1.227 1.227 2.222 0 2.222 C
-1.227 2.222 -2.222 1.227 -2.222 0 C
-2.222 -1.227 -1.227 -2.222 0 -2.222 C
1.227 -2.222 2.222 -1.227 2.222 0 C
cp
f
GR
GS
[0.75 0 0 0.75 93.1275 256.20564] CT
N
2.222 0 M
2.222 1.227 1.227 2.222 0 2.222 C
-1.227 2.222 -2.222 1.227 -2.222 0 C
-2.222 -1.227 -1.227 -2.222 0 -2.222 C
1.227 -2.222 2.222 -1.227 2.222 0 C
cp
f
GR
GS
[0.75 0 0 0.75 73.0125 86.06625] CT
/Helvetica 13 F
GS
[1 0 0 1 0 0] CT
-11.5 5.5 moveto 
1 -1 scale
(F1L) t 
GR
GR
GS
[0.75 0 0 0.75 73.0125 310.68375] CT
/Helvetica 13 F
GS
[1 0 0 1 0 0] CT
-11.5 5.5 moveto 
1 -1 scale
(F2L) t 
GR
GR
GS
[0.75 0 0 0.75 374.7375 86.06625] CT
/Helvetica 13 F
GS
[1 0 0 1 0 0] CT
-12.5 5.5 moveto 
1 -1 scale
(F1R) t 
GR
GR
GS
[0.75 0 0 0.75 374.7375 310.68375] CT
/Helvetica 13 F
GS
[1 0 0 1 0 0] CT
-12.5 5.5 moveto 
1 -1 scale
(F2R) t 
GR
GR
GS
[0.75 0 0 0.75 73.0125 156.46875] CT
/Helvetica 13 F
GS
[1 0 0 1 0 0] CT
0 5.5 moveto 
1 -1 scale
(G1L) t 
GR
GR
GS
[0.75 0 0 0.75 73.0125 240.28125] CT
/Helvetica 13 F
GS
[1 0 0 1 0 0] CT
0 5.5 moveto 
1 -1 scale
(G2L) t 
GR
GR
GS
[0.75 0 0 0.75 374.7375 156.46875] CT
/Helvetica 13 F
GS
[1 0 0 1 0 0] CT
-27 5.5 moveto 
1 -1 scale
(G1R) t 
GR
GR
GS
[0.75 0 0 0.75 374.7375 240.28125] CT
/Helvetica 13 F
GS
[1 0 0 1 0 0] CT
-27 5.5 moveto 
1 -1 scale
(G2R) t 
GR
GR
GS
[0.75 0 0 0.75 134.79861 176.83342] CT
/Helvetica 13 F
GS
[1 0 0 1 0 0] CT
0 5.5 moveto 
1 -1 scale
(1) t 
GR
GR
GS
[0.75 0 0 0.75 0 0] CT
N
162.727 221.167 M
166.576 221.167 L
168.5 217.833 L
170.424 221.167 L
174.273 221.167 L
171.833 224.5 L
174.273 227.833 L
170.424 227.833 L
168.5 231.167 L
166.576 227.833 L
162.727 227.833 L
165.167 224.5 L
162.727 221.167 L
cp
f
GR
GS
[0.75 0 0 0.75 0 0] CT
2 setlinecap
10.0 ML
N
162.727 221.167 M
166.576 221.167 L
168.5 217.833 L
170.424 221.167 L
174.273 221.167 L
171.833 224.5 L
174.273 227.833 L
170.424 227.833 L
168.5 231.167 L
166.576 227.833 L
162.727 227.833 L
165.167 224.5 L
162.727 221.167 L
S
GR
GS
[0.75 0 0 0.75 0 0] CT
0.302 GC
2 setlinecap
10.0 ML
1.333 LW
N
168.556 224.603 M
194.355 188.099 L
S
GR
GS
[0.75 0 0 0.75 0 0] CT
0.749 GC
2 setlinecap
10.0 ML
1.333 LW
N
168.556 224.603 M
132.052 198.805 L
S
GR
GS
[0.75 0 0 0.75 250.13013 223.77763] CT
/Helvetica 13 F
GS
[1 0 0 1 0 0] CT
0 5.5 moveto 
1 -1 scale
(2) t 
GR
GR
GS
[0.75 0 0 0.75 0 0] CT
N
316.727 284.167 M
320.576 284.167 L
322.5 280.833 L
324.424 284.167 L
328.273 284.167 L
325.833 287.5 L
328.273 290.833 L
324.424 290.833 L
322.5 294.167 L
320.576 290.833 L
316.727 290.833 L
319.167 287.5 L
316.727 284.167 L
cp
f
GR
GS
[0.75 0 0 0.75 0 0] CT
2 setlinecap
10.0 ML
N
316.727 284.167 M
320.576 284.167 L
322.5 280.833 L
324.424 284.167 L
328.273 284.167 L
325.833 287.5 L
328.273 290.833 L
324.424 290.833 L
322.5 294.167 L
320.576 290.833 L
316.727 290.833 L
319.167 287.5 L
316.727 284.167 L
S
GR
GS
[0.75 0 0 0.75 0 0] CT
0.302 GC
2 setlinecap
10.0 ML
1.333 LW
N
322.332 287.195 M
355.818 257.584 L
S
GR
GS
[0.75 0 0 0.75 0 0] CT
0.749 GC
2 setlinecap
10.0 ML
1.333 LW
N
322.332 287.195 M
292.721 253.709 L
S
GR
GS
[0.75 0 0 0.75 319.77338 168.9944] CT
/Helvetica 13 F
GS
[1 0 0 1 0 0] CT
0 5.5 moveto 
1 -1 scale
(3) t 
GR
GR
GS
[0.75 0 0 0.75 0 0] CT
N
409.727 211.167 M
413.576 211.167 L
415.5 207.833 L
417.424 211.167 L
421.273 211.167 L
418.833 214.5 L
421.273 217.833 L
417.424 217.833 L
415.5 221.167 L
413.576 217.833 L
409.727 217.833 L
412.167 214.5 L
409.727 211.167 L
cp
f
GR
GS
[0.75 0 0 0.75 0 0] CT
2 setlinecap
10.0 ML
N
409.727 211.167 M
413.576 211.167 L
415.5 207.833 L
417.424 211.167 L
421.273 211.167 L
418.833 214.5 L
421.273 217.833 L
417.424 217.833 L
415.5 221.167 L
413.576 217.833 L
409.727 217.833 L
412.167 214.5 L
409.727 211.167 L
S
GR
GS
[0.75 0 0 0.75 0 0] CT
0.302 GC
2 setlinecap
10.0 ML
1.333 LW
N
415.19 214.151 M
426.975 257.269 L
S
GR
GS
[0.75 0 0 0.75 0 0] CT
0.749 GC
2 setlinecap
10.0 ML
1.333 LW
N
415.19 214.151 M
458.308 202.366 L
S
GR
GS
[0.75 0 0 0.75 349.22788 251.7467] CT
/Helvetica 13 F
GS
[1 0 0 1 0 0] CT
0 5.5 moveto 
1 -1 scale
(4) t 
GR
GR
GS
[0.75 0 0 0.75 0 0] CT
N
448.727 321.167 M
452.576 321.167 L
454.5 317.833 L
456.424 321.167 L
460.273 321.167 L
457.833 324.5 L
460.273 327.833 L
456.424 327.833 L
454.5 331.167 L
452.576 327.833 L
448.727 327.833 L
451.167 324.5 L
448.727 321.167 L
cp
f
GR
GS
[0.75 0 0 0.75 0 0] CT
2 setlinecap
10.0 ML
N
448.727 321.167 M
452.576 321.167 L
454.5 317.833 L
456.424 321.167 L
460.273 321.167 L
457.833 324.5 L
460.273 327.833 L
456.424 327.833 L
454.5 331.167 L
452.576 327.833 L
448.727 327.833 L
451.167 324.5 L
448.727 321.167 L
S
GR
GS
[0.75 0 0 0.75 0 0] CT
0.302 GC
2 setlinecap
10.0 ML
1.333 LW
N
454.462 324.487 M
414.726 304.015 L
S
GR
GS
[0.75 0 0 0.75 0 0] CT
0.749 GC
2 setlinecap
10.0 ML
1.333 LW
N
454.462 324.487 M
433.99 364.223 L
S
GR
GS
[0.75 0 0 0.75 134.01035 235.53985] CT
/Helvetica 13 F
GS
[1 0 0 1 0 0] CT
0 5.5 moveto 
1 -1 scale
(5) t 
GR
GR
GS
[0.75 0 0 0.75 0 0] CT
N
161.727 299.167 M
165.576 299.167 L
167.5 295.833 L
169.424 299.167 L
173.273 299.167 L
170.833 302.5 L
173.273 305.833 L
169.424 305.833 L
167.5 309.167 L
165.576 305.833 L
161.727 305.833 L
164.167 302.5 L
161.727 299.167 L
cp
f
GR
GS
[0.75 0 0 0.75 0 0] CT
2 setlinecap
10.0 ML
N
161.727 299.167 M
165.576 299.167 L
167.5 295.833 L
169.424 299.167 L
173.273 299.167 L
170.833 302.5 L
173.273 305.833 L
169.424 305.833 L
167.5 309.167 L
165.576 305.833 L
161.727 305.833 L
164.167 302.5 L
161.727 299.167 L
S
GR
GS
[0.75 0 0 0.75 0 0] CT
0.302 GC
2 setlinecap
10.0 ML
1.333 LW
N
167.505 302.878 M
210.903 313.59 L
S
GR
GS
[0.75 0 0 0.75 0 0] CT
0.749 GC
2 setlinecap
10.0 ML
1.333 LW
N
167.505 302.878 M
178.217 259.481 L
S
GR
GS
[0.75 0 0 0.75 0 0] CT
[10 6] 0 setdash
2 LJ
1.333 LW
N
167.505 302.878 M
522.045 200.313 L
S
GR
GS
[0.75 0 0 0.75 0 0] CT
[10 6] 0 setdash
2 LJ
1.333 LW
N
167.505 302.878 M
360.155 488.045 L
S
GR
GS
[0.75 0 0 0.75 166.31427 237.20103] CT
/Helvetica 13 F
GS
[1 0 0 1 0 0] CT
0 5.5 moveto 
1 -1 scale
(x\264) t 
GR
GR
GS
[0.75 0 0 0.75 135.67152 186.47342] CT
/Helvetica 13 F
GS
[1 0 0 1 0 0] CT
0 5.5 moveto 
1 -1 scale
(y\264) t 
GR
GR
%%Trailer
%%Pages: 1
%%EOF
